{
    "basic1": {
        "basic test 1": [
            {
                "command": "timeout 15 ./threadpool_test -n 1",
                "error": "        Program terminated with signal 11 (SIGSEGV) \n        --------------------------------------------\n        Program output:\n        \n        StdErr output:\n        threadpool_test: list.c:63: list_init: Assertion `list != ((void *)0)' failed.\ntimeout: the monitored command dumped core\n\n        ",
                "nthreads": 1,
                "passed": 0,
                "run_count": 1,
                "runs": [
                    {
                        "command": "timeout 15 ./threadpool_test -n 1",
                        "error": "        Program terminated with signal 11 (SIGSEGV) \n        --------------------------------------------\n        Program output:\n        \n        StdErr output:\n        threadpool_test: list.c:63: list_init: Assertion `list != ((void *)0)' failed.\ntimeout: the monitored command dumped core\n\n        ",
                        "nthreads": 1
                    }
                ]
            },
            {
                "command": "timeout 15 ./threadpool_test -n 2",
                "error": "        Program terminated with signal 11 (SIGSEGV) \n        --------------------------------------------\n        Program output:\n        \n        StdErr output:\n        threadpool_test: list.c:63: list_init: Assertion `list != ((void *)0)' failed.\ntimeout: the monitored command dumped core\n\n        ",
                "nthreads": 2,
                "passed": 0,
                "run_count": 1,
                "runs": [
                    {
                        "command": "timeout 15 ./threadpool_test -n 2",
                        "error": "        Program terminated with signal 11 (SIGSEGV) \n        --------------------------------------------\n        Program output:\n        \n        StdErr output:\n        threadpool_test: list.c:63: list_init: Assertion `list != ((void *)0)' failed.\ntimeout: the monitored command dumped core\n\n        ",
                        "nthreads": 2
                    }
                ]
            },
            {
                "command": "timeout 15 ./threadpool_test -n 4",
                "error": "        Program terminated with signal 11 (SIGSEGV) \n        --------------------------------------------\n        Program output:\n        \n        StdErr output:\n        threadpool_test: list.c:63: list_init: Assertion `list != ((void *)0)' failed.\ntimeout: the monitored command dumped core\n\n        ",
                "nthreads": 4,
                "passed": 0,
                "run_count": 1,
                "runs": [
                    {
                        "command": "timeout 15 ./threadpool_test -n 4",
                        "error": "        Program terminated with signal 11 (SIGSEGV) \n        --------------------------------------------\n        Program output:\n        \n        StdErr output:\n        threadpool_test: list.c:63: list_init: Assertion `list != ((void *)0)' failed.\ntimeout: the monitored command dumped core\n\n        ",
                        "nthreads": 4
                    }
                ]
            }
        ]
    },
    "basic2": {
        "basic test 2": [
            {
                "command": "timeout 15 ./threadpool_test2 -n 1",
                "error": "        Program terminated with signal 11 (SIGSEGV) \n        --------------------------------------------\n        Program output:\n        \n        StdErr output:\n        threadpool_test2: list.c:63: list_init: Assertion `list != ((void *)0)' failed.\ntimeout: the monitored command dumped core\n\n        ",
                "nthreads": 1,
                "passed": 0,
                "run_count": 1,
                "runs": [
                    {
                        "command": "timeout 15 ./threadpool_test2 -n 1",
                        "error": "        Program terminated with signal 11 (SIGSEGV) \n        --------------------------------------------\n        Program output:\n        \n        StdErr output:\n        threadpool_test2: list.c:63: list_init: Assertion `list != ((void *)0)' failed.\ntimeout: the monitored command dumped core\n\n        ",
                        "nthreads": 1
                    }
                ]
            },
            {
                "command": "timeout 15 ./threadpool_test2 -n 2",
                "error": "        Program terminated with signal 6 (SIGABRT) \n        --------------------------------------------\n        Program output:\n        \n        StdErr output:\n        threadpool_test2: list.c:63: list_init: Assertion `list != ((void *)0)' failed.\ntimeout: the monitored command dumped core\n\n        ",
                "nthreads": 2,
                "passed": 0,
                "run_count": 1,
                "runs": [
                    {
                        "command": "timeout 15 ./threadpool_test2 -n 2",
                        "error": "        Program terminated with signal 6 (SIGABRT) \n        --------------------------------------------\n        Program output:\n        \n        StdErr output:\n        threadpool_test2: list.c:63: list_init: Assertion `list != ((void *)0)' failed.\ntimeout: the monitored command dumped core\n\n        ",
                        "nthreads": 2
                    }
                ]
            },
            {
                "command": "timeout 15 ./threadpool_test2 -n 4",
                "error": "        Program terminated with signal 11 (SIGSEGV) \n        --------------------------------------------\n        Program output:\n        \n        StdErr output:\n        timeout: the monitored command dumped core\n\n        ",
                "nthreads": 4,
                "passed": 0,
                "run_count": 1,
                "runs": [
                    {
                        "command": "timeout 15 ./threadpool_test2 -n 4",
                        "error": "        Program terminated with signal 11 (SIGSEGV) \n        --------------------------------------------\n        Program output:\n        \n        StdErr output:\n        timeout: the monitored command dumped core\n\n        ",
                        "nthreads": 4
                    }
                ]
            }
        ]
    },
    "basic3": {
        "basic test 3": [
            {
                "command": "timeout 15 ./threadpool_test3 -n 1",
                "error": "        Program terminated with signal 11 (SIGSEGV) \n        --------------------------------------------\n        Program output:\n        \n        StdErr output:\n        threadpool_test3: list.c:63: list_init: Assertion `list != ((void *)0)' failed.\ntimeout: the monitored command dumped core\n\n        ",
                "nthreads": 1,
                "passed": 0,
                "run_count": 1,
                "runs": [
                    {
                        "command": "timeout 15 ./threadpool_test3 -n 1",
                        "error": "        Program terminated with signal 11 (SIGSEGV) \n        --------------------------------------------\n        Program output:\n        \n        StdErr output:\n        threadpool_test3: list.c:63: list_init: Assertion `list != ((void *)0)' failed.\ntimeout: the monitored command dumped core\n\n        ",
                        "nthreads": 1
                    }
                ]
            },
            {
                "command": "timeout 15 ./threadpool_test3 -n 2",
                "error": "        Program terminated with signal 11 (SIGSEGV) \n        --------------------------------------------\n        Program output:\n        \n        StdErr output:\n        threadpool_test3: list.c:63: list_init: Assertion `list != ((void *)0)' failed.\ntimeout: the monitored command dumped core\n\n        ",
                "nthreads": 2,
                "passed": 0,
                "run_count": 1,
                "runs": [
                    {
                        "command": "timeout 15 ./threadpool_test3 -n 2",
                        "error": "        Program terminated with signal 11 (SIGSEGV) \n        --------------------------------------------\n        Program output:\n        \n        StdErr output:\n        threadpool_test3: list.c:63: list_init: Assertion `list != ((void *)0)' failed.\ntimeout: the monitored command dumped core\n\n        ",
                        "nthreads": 2
                    }
                ]
            },
            {
                "command": "timeout 15 ./threadpool_test3 -n 4",
                "error": "        Program terminated with signal 11 (SIGSEGV) \n        --------------------------------------------\n        Program output:\n        \n        StdErr output:\n        threadpool_test3: list.c:63: list_init: Assertion `list != ((void *)0)' failed.\ntimeout: the monitored command dumped core\n\n        ",
                "nthreads": 4,
                "passed": 0,
                "run_count": 1,
                "runs": [
                    {
                        "command": "timeout 15 ./threadpool_test3 -n 4",
                        "error": "        Program terminated with signal 11 (SIGSEGV) \n        --------------------------------------------\n        Program output:\n        \n        StdErr output:\n        threadpool_test3: list.c:63: list_init: Assertion `list != ((void *)0)' failed.\ntimeout: the monitored command dumped core\n\n        ",
                        "nthreads": 4
                    }
                ]
            }
        ]
    },
    "basic4": {
        "basic test 4": [
            {
                "command": "timeout 15 ./threadpool_test4 -n 2",
                "error": "        Program terminated with signal 6 (SIGABRT) \n        --------------------------------------------\n        Program output:\n        \n        StdErr output:\n        threadpool_test4: list.c:63: list_init: Assertion `list != ((void *)0)' failed.\ntimeout: the monitored command dumped core\n\n        ",
                "nthreads": 2,
                "passed": 0,
                "run_count": 1,
                "runs": [
                    {
                        "command": "timeout 15 ./threadpool_test4 -n 2",
                        "error": "        Program terminated with signal 6 (SIGABRT) \n        --------------------------------------------\n        Program output:\n        \n        StdErr output:\n        threadpool_test4: list.c:63: list_init: Assertion `list != ((void *)0)' failed.\ntimeout: the monitored command dumped core\n\n        ",
                        "nthreads": 2
                    }
                ]
            },
            {
                "command": "timeout 15 ./threadpool_test4 -n 4",
                "error": "        Program terminated with signal 6 (SIGABRT) \n        --------------------------------------------\n        Program output:\n        \n        StdErr output:\n        threadpool_test4: list.c:63: list_init: Assertion `list != ((void *)0)' failed.\ntimeout: the monitored command dumped core\n\n        ",
                "nthreads": 4,
                "passed": 0,
                "run_count": 1,
                "runs": [
                    {
                        "command": "timeout 15 ./threadpool_test4 -n 4",
                        "error": "        Program terminated with signal 6 (SIGABRT) \n        --------------------------------------------\n        Program output:\n        \n        StdErr output:\n        threadpool_test4: list.c:63: list_init: Assertion `list != ((void *)0)' failed.\ntimeout: the monitored command dumped core\n\n        ",
                        "nthreads": 4
                    }
                ]
            }
        ]
    },
    "fibonacci": {
        "fibonacci 30": [
            {
                "command": "timeout 60 ./fib_test -n 1 30",
                "error": "        Program terminated with signal 6 (SIGABRT) \n        --------------------------------------------\n        Program output:\n        \n        StdErr output:\n        fib_test: list.c:63: list_init: Assertion `list != ((void *)0)' failed.\ntimeout: the monitored command dumped core\n\n        ",
                "nthreads": 1,
                "passed": 0,
                "run_count": 1,
                "runs": [
                    {
                        "command": "timeout 60 ./fib_test -n 1 30",
                        "error": "        Program terminated with signal 6 (SIGABRT) \n        --------------------------------------------\n        Program output:\n        \n        StdErr output:\n        fib_test: list.c:63: list_init: Assertion `list != ((void *)0)' failed.\ntimeout: the monitored command dumped core\n\n        ",
                        "nthreads": 1
                    }
                ]
            },
            {
                "command": "timeout 60 ./fib_test -n 2 30",
                "error": "        Program terminated with signal 11 (SIGSEGV) \n        --------------------------------------------\n        Program output:\n        \n        StdErr output:\n        fib_test: list.c:63: list_init: Assertion `list != ((void *)0)' failed.\ntimeout: the monitored command dumped core\n\n        ",
                "nthreads": 2,
                "passed": 0,
                "run_count": 1,
                "runs": [
                    {
                        "command": "timeout 60 ./fib_test -n 2 30",
                        "error": "        Program terminated with signal 11 (SIGSEGV) \n        --------------------------------------------\n        Program output:\n        \n        StdErr output:\n        fib_test: list.c:63: list_init: Assertion `list != ((void *)0)' failed.\ntimeout: the monitored command dumped core\n\n        ",
                        "nthreads": 2
                    }
                ]
            },
            {
                "command": "timeout 60 ./fib_test -n 4 30",
                "error": "        Program terminated with signal 11 (SIGSEGV) \n        --------------------------------------------\n        Program output:\n        \n        StdErr output:\n        fib_test: list.c:63: list_init: Assertion `list != ((void *)0)' failed.\ntimeout: the monitored command dumped core\n\n        ",
                "nthreads": 4,
                "passed": 0,
                "run_count": 1,
                "runs": [
                    {
                        "command": "timeout 60 ./fib_test -n 4 30",
                        "error": "        Program terminated with signal 11 (SIGSEGV) \n        --------------------------------------------\n        Program output:\n        \n        StdErr output:\n        fib_test: list.c:63: list_init: Assertion `list != ((void *)0)' failed.\ntimeout: the monitored command dumped core\n\n        ",
                        "nthreads": 4
                    }
                ]
            },
            {
                "command": "timeout 60 ./fib_test -n 8 30",
                "error": "        Program terminated with signal 11 (SIGSEGV) \n        --------------------------------------------\n        Program output:\n        \n        StdErr output:\n        fib_test: list.c:63: list_init: Assertion `list != ((void *)0)' failed.\ntimeout: the monitored command dumped core\n\n        ",
                "nthreads": 8,
                "passed": 0,
                "run_count": 1,
                "runs": [
                    {
                        "command": "timeout 60 ./fib_test -n 8 30",
                        "error": "        Program terminated with signal 11 (SIGSEGV) \n        --------------------------------------------\n        Program output:\n        \n        StdErr output:\n        fib_test: list.c:63: list_init: Assertion `list != ((void *)0)' failed.\ntimeout: the monitored command dumped core\n\n        ",
                        "nthreads": 8
                    }
                ]
            },
            {
                "command": "timeout 60 ./fib_test -n 16 30",
                "error": "        Program terminated with signal 11 (SIGSEGV) \n        --------------------------------------------\n        Program output:\n        \n        StdErr output:\n        fib_test: list.c:63: list_init: Assertion `list != ((void *)0)' failed.\ntimeout: the monitored command dumped core\n\n        ",
                "nthreads": 16,
                "passed": 0,
                "run_count": 1,
                "runs": [
                    {
                        "command": "timeout 60 ./fib_test -n 16 30",
                        "error": "        Program terminated with signal 11 (SIGSEGV) \n        --------------------------------------------\n        Program output:\n        \n        StdErr output:\n        fib_test: list.c:63: list_init: Assertion `list != ((void *)0)' failed.\ntimeout: the monitored command dumped core\n\n        ",
                        "nthreads": 16
                    }
                ]
            }
        ],
        "fibonacci 38": [
            {
                "command": "timeout 60 ./fib_test -n 1 38",
                "error": "        Program terminated with signal 11 (SIGSEGV) \n        --------------------------------------------\n        Program output:\n        \n        StdErr output:\n        fib_test: list.c:63: list_init: Assertion `list != ((void *)0)' failed.\ntimeout: the monitored command dumped core\n\n        ",
                "nthreads": 1,
                "passed": 0,
                "run_count": 1,
                "runs": [
                    {
                        "command": "timeout 60 ./fib_test -n 1 38",
                        "error": "        Program terminated with signal 11 (SIGSEGV) \n        --------------------------------------------\n        Program output:\n        \n        StdErr output:\n        fib_test: list.c:63: list_init: Assertion `list != ((void *)0)' failed.\ntimeout: the monitored command dumped core\n\n        ",
                        "nthreads": 1
                    }
                ]
            },
            {
                "command": "timeout 60 ./fib_test -n 2 38",
                "error": "        Program terminated with signal 6 (SIGABRT) \n        --------------------------------------------\n        Program output:\n        \n        StdErr output:\n        fib_test: list.c:63: list_init: Assertion `list != ((void *)0)' failed.\ntimeout: the monitored command dumped core\n\n        ",
                "nthreads": 2,
                "passed": 0,
                "run_count": 1,
                "runs": [
                    {
                        "command": "timeout 60 ./fib_test -n 2 38",
                        "error": "        Program terminated with signal 6 (SIGABRT) \n        --------------------------------------------\n        Program output:\n        \n        StdErr output:\n        fib_test: list.c:63: list_init: Assertion `list != ((void *)0)' failed.\ntimeout: the monitored command dumped core\n\n        ",
                        "nthreads": 2
                    }
                ]
            },
            {
                "command": "timeout 60 ./fib_test -n 4 38",
                "error": "        Program terminated with signal 6 (SIGABRT) \n        --------------------------------------------\n        Program output:\n        \n        StdErr output:\n        fib_test: list.c:63: list_init: Assertion `list != ((void *)0)' failed.\ntimeout: the monitored command dumped core\n\n        ",
                "nthreads": 4,
                "passed": 0,
                "run_count": 1,
                "runs": [
                    {
                        "command": "timeout 60 ./fib_test -n 4 38",
                        "error": "        Program terminated with signal 6 (SIGABRT) \n        --------------------------------------------\n        Program output:\n        \n        StdErr output:\n        fib_test: list.c:63: list_init: Assertion `list != ((void *)0)' failed.\ntimeout: the monitored command dumped core\n\n        ",
                        "nthreads": 4
                    }
                ]
            }
        ]
    },
    "mergesort": {
        "mergesort large": [
            {
                "command": "timeout 60 ./mergesort -n 5 -s 43 200000000",
                "error": "        Program terminated with signal 6 (SIGABRT) \n        --------------------------------------------\n        Program output:\n        Using 5 threads, parallel/serials threshold=1000 insertion sort threshold=16\n\n        StdErr output:\n        mergesort: list.c:63: list_init: Assertion `list != ((void *)0)' failed.\ntimeout: the monitored command dumped core\n\n        ",
                "nthreads": 5,
                "passed": 0,
                "run_count": 1,
                "runs": [
                    {
                        "command": "timeout 60 ./mergesort -n 5 -s 43 200000000",
                        "error": "        Program terminated with signal 6 (SIGABRT) \n        --------------------------------------------\n        Program output:\n        Using 5 threads, parallel/serials threshold=1000 insertion sort threshold=16\n\n        StdErr output:\n        mergesort: list.c:63: list_init: Assertion `list != ((void *)0)' failed.\ntimeout: the monitored command dumped core\n\n        ",
                        "nthreads": 5
                    }
                ]
            },
            {
                "command": "timeout 60 ./mergesort -n 10 -s 43 200000000",
                "error": "        Program terminated with signal 6 (SIGABRT) \n        --------------------------------------------\n        Program output:\n        Using 10 threads, parallel/serials threshold=1000 insertion sort threshold=16\n\n        StdErr output:\n        mergesort: list.c:63: list_init: Assertion `list != ((void *)0)' failed.\ntimeout: the monitored command dumped core\n\n        ",
                "nthreads": 10,
                "passed": 0,
                "run_count": 1,
                "runs": [
                    {
                        "command": "timeout 60 ./mergesort -n 10 -s 43 200000000",
                        "error": "        Program terminated with signal 6 (SIGABRT) \n        --------------------------------------------\n        Program output:\n        Using 10 threads, parallel/serials threshold=1000 insertion sort threshold=16\n\n        StdErr output:\n        mergesort: list.c:63: list_init: Assertion `list != ((void *)0)' failed.\ntimeout: the monitored command dumped core\n\n        ",
                        "nthreads": 10
                    }
                ]
            },
            {
                "command": "timeout 60 ./mergesort -n 20 -s 43 200000000",
                "error": "        Program terminated with signal 6 (SIGABRT) \n        --------------------------------------------\n        Program output:\n        Using 20 threads, parallel/serials threshold=1000 insertion sort threshold=16\n\n        StdErr output:\n        mergesort: list.c:63: list_init: Assertion `list != ((void *)0)' failed.\ntimeout: the monitored command dumped core\n\n        ",
                "nthreads": 20,
                "passed": 0,
                "run_count": 1,
                "runs": [
                    {
                        "command": "timeout 60 ./mergesort -n 20 -s 43 200000000",
                        "error": "        Program terminated with signal 6 (SIGABRT) \n        --------------------------------------------\n        Program output:\n        Using 20 threads, parallel/serials threshold=1000 insertion sort threshold=16\n\n        StdErr output:\n        mergesort: list.c:63: list_init: Assertion `list != ((void *)0)' failed.\ntimeout: the monitored command dumped core\n\n        ",
                        "nthreads": 20
                    }
                ]
            }
        ],
        "mergesort medium": [
            {
                "command": "timeout 15 ./mergesort -n 1 -s 43 20000000",
                "error": "        Program terminated with signal 11 (SIGSEGV) \n        --------------------------------------------\n        Program output:\n        Using 1 threads, parallel/serials threshold=1000 insertion sort threshold=16\n\n        StdErr output:\n        mergesort: list.c:63: list_init: Assertion `list != ((void *)0)' failed.\ntimeout: the monitored command dumped core\n\n        ",
                "nthreads": 1,
                "passed": 0,
                "run_count": 1,
                "runs": [
                    {
                        "command": "timeout 15 ./mergesort -n 1 -s 43 20000000",
                        "error": "        Program terminated with signal 11 (SIGSEGV) \n        --------------------------------------------\n        Program output:\n        Using 1 threads, parallel/serials threshold=1000 insertion sort threshold=16\n\n        StdErr output:\n        mergesort: list.c:63: list_init: Assertion `list != ((void *)0)' failed.\ntimeout: the monitored command dumped core\n\n        ",
                        "nthreads": 1
                    }
                ]
            },
            {
                "command": "timeout 15 ./mergesort -n 2 -s 43 20000000",
                "error": "        Program terminated with signal 6 (SIGABRT) \n        --------------------------------------------\n        Program output:\n        Using 2 threads, parallel/serials threshold=1000 insertion sort threshold=16\n\n        StdErr output:\n        mergesort: list.c:63: list_init: Assertion `list != ((void *)0)' failed.\ntimeout: the monitored command dumped core\n\n        ",
                "nthreads": 2,
                "passed": 0,
                "run_count": 1,
                "runs": [
                    {
                        "command": "timeout 15 ./mergesort -n 2 -s 43 20000000",
                        "error": "        Program terminated with signal 6 (SIGABRT) \n        --------------------------------------------\n        Program output:\n        Using 2 threads, parallel/serials threshold=1000 insertion sort threshold=16\n\n        StdErr output:\n        mergesort: list.c:63: list_init: Assertion `list != ((void *)0)' failed.\ntimeout: the monitored command dumped core\n\n        ",
                        "nthreads": 2
                    }
                ]
            },
            {
                "command": "timeout 15 ./mergesort -n 4 -s 43 20000000",
                "error": "        Program terminated with signal 11 (SIGSEGV) \n        --------------------------------------------\n        Program output:\n        Using 4 threads, parallel/serials threshold=1000 insertion sort threshold=16\n\n        StdErr output:\n        mergesort: list.c:63: list_init: Assertion `list != ((void *)0)' failed.\ntimeout: the monitored command dumped core\n\n        ",
                "nthreads": 4,
                "passed": 0,
                "run_count": 1,
                "runs": [
                    {
                        "command": "timeout 15 ./mergesort -n 4 -s 43 20000000",
                        "error": "        Program terminated with signal 11 (SIGSEGV) \n        --------------------------------------------\n        Program output:\n        Using 4 threads, parallel/serials threshold=1000 insertion sort threshold=16\n\n        StdErr output:\n        mergesort: list.c:63: list_init: Assertion `list != ((void *)0)' failed.\ntimeout: the monitored command dumped core\n\n        ",
                        "nthreads": 4
                    }
                ]
            },
            {
                "command": "timeout 15 ./mergesort -n 8 -s 43 20000000",
                "error": "        Program terminated with signal 6 (SIGABRT) \n        --------------------------------------------\n        Program output:\n        Using 8 threads, parallel/serials threshold=1000 insertion sort threshold=16\n\n        StdErr output:\n        mergesort: list.c:63: list_init: Assertion `list != ((void *)0)' failed.\ntimeout: the monitored command dumped core\n\n        ",
                "nthreads": 8,
                "passed": 0,
                "run_count": 1,
                "runs": [
                    {
                        "command": "timeout 15 ./mergesort -n 8 -s 43 20000000",
                        "error": "        Program terminated with signal 6 (SIGABRT) \n        --------------------------------------------\n        Program output:\n        Using 8 threads, parallel/serials threshold=1000 insertion sort threshold=16\n\n        StdErr output:\n        mergesort: list.c:63: list_init: Assertion `list != ((void *)0)' failed.\ntimeout: the monitored command dumped core\n\n        ",
                        "nthreads": 8
                    }
                ]
            },
            {
                "command": "timeout 15 ./mergesort -n 16 -s 43 20000000",
                "error": "        Program terminated with signal 6 (SIGABRT) \n        --------------------------------------------\n        Program output:\n        Using 16 threads, parallel/serials threshold=1000 insertion sort threshold=16\n\n        StdErr output:\n        mergesort: list.c:63: list_init: Assertion `list != ((void *)0)' failed.\ntimeout: the monitored command dumped core\n\n        ",
                "nthreads": 16,
                "passed": 0,
                "run_count": 1,
                "runs": [
                    {
                        "command": "timeout 15 ./mergesort -n 16 -s 43 20000000",
                        "error": "        Program terminated with signal 6 (SIGABRT) \n        --------------------------------------------\n        Program output:\n        Using 16 threads, parallel/serials threshold=1000 insertion sort threshold=16\n\n        StdErr output:\n        mergesort: list.c:63: list_init: Assertion `list != ((void *)0)' failed.\ntimeout: the monitored command dumped core\n\n        ",
                        "nthreads": 16
                    }
                ]
            }
        ],
        "mergesort small": [
            {
                "command": "timeout 15 ./mergesort -n 1 -s 43 2000000",
                "error": "        Program terminated with signal 6 (SIGABRT) \n        --------------------------------------------\n        Program output:\n        Using 1 threads, parallel/serials threshold=1000 insertion sort threshold=16\n\n        StdErr output:\n        mergesort: list.c:63: list_init: Assertion `list != ((void *)0)' failed.\ntimeout: the monitored command dumped core\n\n        ",
                "nthreads": 1,
                "passed": 0,
                "run_count": 1,
                "runs": [
                    {
                        "command": "timeout 15 ./mergesort -n 1 -s 43 2000000",
                        "error": "        Program terminated with signal 6 (SIGABRT) \n        --------------------------------------------\n        Program output:\n        Using 1 threads, parallel/serials threshold=1000 insertion sort threshold=16\n\n        StdErr output:\n        mergesort: list.c:63: list_init: Assertion `list != ((void *)0)' failed.\ntimeout: the monitored command dumped core\n\n        ",
                        "nthreads": 1
                    }
                ]
            },
            {
                "command": "timeout 15 ./mergesort -n 2 -s 43 2000000",
                "error": "        Program terminated with signal 11 (SIGSEGV) \n        --------------------------------------------\n        Program output:\n        Using 2 threads, parallel/serials threshold=1000 insertion sort threshold=16\n\n        StdErr output:\n        mergesort: list.c:63: list_init: Assertion `list != ((void *)0)' failed.\ntimeout: the monitored command dumped core\n\n        ",
                "nthreads": 2,
                "passed": 0,
                "run_count": 1,
                "runs": [
                    {
                        "command": "timeout 15 ./mergesort -n 2 -s 43 2000000",
                        "error": "        Program terminated with signal 11 (SIGSEGV) \n        --------------------------------------------\n        Program output:\n        Using 2 threads, parallel/serials threshold=1000 insertion sort threshold=16\n\n        StdErr output:\n        mergesort: list.c:63: list_init: Assertion `list != ((void *)0)' failed.\ntimeout: the monitored command dumped core\n\n        ",
                        "nthreads": 2
                    }
                ]
            },
            {
                "command": "timeout 15 ./mergesort -n 4 -s 43 2000000",
                "error": "        Program terminated with signal 6 (SIGABRT) \n        --------------------------------------------\n        Program output:\n        Using 4 threads, parallel/serials threshold=1000 insertion sort threshold=16\n\n        StdErr output:\n        mergesort: list.c:63: list_init: Assertion `list != ((void *)0)' failed.\ntimeout: the monitored command dumped core\n\n        ",
                "nthreads": 4,
                "passed": 0,
                "run_count": 1,
                "runs": [
                    {
                        "command": "timeout 15 ./mergesort -n 4 -s 43 2000000",
                        "error": "        Program terminated with signal 6 (SIGABRT) \n        --------------------------------------------\n        Program output:\n        Using 4 threads, parallel/serials threshold=1000 insertion sort threshold=16\n\n        StdErr output:\n        mergesort: list.c:63: list_init: Assertion `list != ((void *)0)' failed.\ntimeout: the monitored command dumped core\n\n        ",
                        "nthreads": 4
                    }
                ]
            },
            {
                "command": "timeout 15 ./mergesort -n 8 -s 43 2000000",
                "error": "        Program terminated with signal 6 (SIGABRT) \n        --------------------------------------------\n        Program output:\n        Using 8 threads, parallel/serials threshold=1000 insertion sort threshold=16\n\n        StdErr output:\n        mergesort: list.c:63: list_init: Assertion `list != ((void *)0)' failed.\ntimeout: the monitored command dumped core\n\n        ",
                "nthreads": 8,
                "passed": 0,
                "run_count": 1,
                "runs": [
                    {
                        "command": "timeout 15 ./mergesort -n 8 -s 43 2000000",
                        "error": "        Program terminated with signal 6 (SIGABRT) \n        --------------------------------------------\n        Program output:\n        Using 8 threads, parallel/serials threshold=1000 insertion sort threshold=16\n\n        StdErr output:\n        mergesort: list.c:63: list_init: Assertion `list != ((void *)0)' failed.\ntimeout: the monitored command dumped core\n\n        ",
                        "nthreads": 8
                    }
                ]
            },
            {
                "command": "timeout 15 ./mergesort -n 16 -s 43 2000000",
                "error": "        Program terminated with signal 6 (SIGABRT) \n        --------------------------------------------\n        Program output:\n        Using 16 threads, parallel/serials threshold=1000 insertion sort threshold=16\n\n        StdErr output:\n        mergesort: list.c:63: list_init: Assertion `list != ((void *)0)' failed.\ntimeout: the monitored command dumped core\n\n        ",
                "nthreads": 16,
                "passed": 0,
                "run_count": 1,
                "runs": [
                    {
                        "command": "timeout 15 ./mergesort -n 16 -s 43 2000000",
                        "error": "        Program terminated with signal 6 (SIGABRT) \n        --------------------------------------------\n        Program output:\n        Using 16 threads, parallel/serials threshold=1000 insertion sort threshold=16\n\n        StdErr output:\n        mergesort: list.c:63: list_init: Assertion `list != ((void *)0)' failed.\ntimeout: the monitored command dumped core\n\n        ",
                        "nthreads": 16
                    }
                ]
            }
        ]
    },
    "nqueens": {
        "nqueens 11": [
            {
                "command": "timeout 15 ./nqueens -n 1 11",
                "error": "        Program terminated with signal 11 (SIGSEGV) \n        --------------------------------------------\n        Program output:\n        Solving N = 11\n\n        StdErr output:\n        nqueens: list.c:63: list_init: Assertion `list != ((void *)0)' failed.\ntimeout: the monitored command dumped core\n\n        ",
                "nthreads": 1,
                "passed": 0,
                "run_count": 1,
                "runs": [
                    {
                        "command": "timeout 15 ./nqueens -n 1 11",
                        "error": "        Program terminated with signal 11 (SIGSEGV) \n        --------------------------------------------\n        Program output:\n        Solving N = 11\n\n        StdErr output:\n        nqueens: list.c:63: list_init: Assertion `list != ((void *)0)' failed.\ntimeout: the monitored command dumped core\n\n        ",
                        "nthreads": 1
                    }
                ]
            },
            {
                "command": "timeout 15 ./nqueens -n 2 11",
                "error": "        Program terminated with signal 6 (SIGABRT) \n        --------------------------------------------\n        Program output:\n        Solving N = 11\n\n        StdErr output:\n        nqueens: list.c:63: list_init: Assertion `list != ((void *)0)' failed.\ntimeout: the monitored command dumped core\n\n        ",
                "nthreads": 2,
                "passed": 0,
                "run_count": 1,
                "runs": [
                    {
                        "command": "timeout 15 ./nqueens -n 2 11",
                        "error": "        Program terminated with signal 6 (SIGABRT) \n        --------------------------------------------\n        Program output:\n        Solving N = 11\n\n        StdErr output:\n        nqueens: list.c:63: list_init: Assertion `list != ((void *)0)' failed.\ntimeout: the monitored command dumped core\n\n        ",
                        "nthreads": 2
                    }
                ]
            },
            {
                "command": "timeout 15 ./nqueens -n 4 11",
                "error": "        Program terminated with signal 11 (SIGSEGV) \n        --------------------------------------------\n        Program output:\n        Solving N = 11\n\n        StdErr output:\n        nqueens: list.c:63: list_init: Assertion `list != ((void *)0)' failed.\ntimeout: the monitored command dumped core\n\n        ",
                "nthreads": 4,
                "passed": 0,
                "run_count": 1,
                "runs": [
                    {
                        "command": "timeout 15 ./nqueens -n 4 11",
                        "error": "        Program terminated with signal 11 (SIGSEGV) \n        --------------------------------------------\n        Program output:\n        Solving N = 11\n\n        StdErr output:\n        nqueens: list.c:63: list_init: Assertion `list != ((void *)0)' failed.\ntimeout: the monitored command dumped core\n\n        ",
                        "nthreads": 4
                    }
                ]
            },
            {
                "command": "timeout 15 ./nqueens -n 8 11",
                "error": "        Program terminated with signal 11 (SIGSEGV) \n        --------------------------------------------\n        Program output:\n        Solving N = 11\n\n        StdErr output:\n        nqueens: list.c:63: list_init: Assertion `list != ((void *)0)' failed.\ntimeout: the monitored command dumped core\n\n        ",
                "nthreads": 8,
                "passed": 0,
                "run_count": 1,
                "runs": [
                    {
                        "command": "timeout 15 ./nqueens -n 8 11",
                        "error": "        Program terminated with signal 11 (SIGSEGV) \n        --------------------------------------------\n        Program output:\n        Solving N = 11\n\n        StdErr output:\n        nqueens: list.c:63: list_init: Assertion `list != ((void *)0)' failed.\ntimeout: the monitored command dumped core\n\n        ",
                        "nthreads": 8
                    }
                ]
            },
            {
                "command": "timeout 15 ./nqueens -n 16 11",
                "error": "        Program terminated with signal 11 (SIGSEGV) \n        --------------------------------------------\n        Program output:\n        Solving N = 11\n\n        StdErr output:\n        nqueens: list.c:63: list_init: Assertion `list != ((void *)0)' failed.\ntimeout: the monitored command dumped core\n\n        ",
                "nthreads": 16,
                "passed": 0,
                "run_count": 1,
                "runs": [
                    {
                        "command": "timeout 15 ./nqueens -n 16 11",
                        "error": "        Program terminated with signal 11 (SIGSEGV) \n        --------------------------------------------\n        Program output:\n        Solving N = 11\n\n        StdErr output:\n        nqueens: list.c:63: list_init: Assertion `list != ((void *)0)' failed.\ntimeout: the monitored command dumped core\n\n        ",
                        "nthreads": 16
                    }
                ]
            }
        ],
        "nqueens 12": [
            {
                "command": "timeout 60 ./nqueens -n 1 12",
                "error": "        Program terminated with signal 11 (SIGSEGV) \n        --------------------------------------------\n        Program output:\n        \n        StdErr output:\n        nqueens: list.c:63: list_init: Assertion `list != ((void *)0)' failed.\ntimeout: the monitored command dumped core\n\n        ",
                "nthreads": 1,
                "passed": 0,
                "run_count": 1,
                "runs": [
                    {
                        "command": "timeout 60 ./nqueens -n 1 12",
                        "error": "        Program terminated with signal 11 (SIGSEGV) \n        --------------------------------------------\n        Program output:\n        \n        StdErr output:\n        nqueens: list.c:63: list_init: Assertion `list != ((void *)0)' failed.\ntimeout: the monitored command dumped core\n\n        ",
                        "nthreads": 1
                    }
                ]
            },
            {
                "command": "timeout 60 ./nqueens -n 2 12",
                "error": "        Program terminated with signal 6 (SIGABRT) \n        --------------------------------------------\n        Program output:\n        Solving N = 12\n\n        StdErr output:\n        nqueens: list.c:63: list_init: Assertion `list != ((void *)0)' failed.\ntimeout: the monitored command dumped core\n\n        ",
                "nthreads": 2,
                "passed": 0,
                "run_count": 1,
                "runs": [
                    {
                        "command": "timeout 60 ./nqueens -n 2 12",
                        "error": "        Program terminated with signal 6 (SIGABRT) \n        --------------------------------------------\n        Program output:\n        Solving N = 12\n\n        StdErr output:\n        nqueens: list.c:63: list_init: Assertion `list != ((void *)0)' failed.\ntimeout: the monitored command dumped core\n\n        ",
                        "nthreads": 2
                    }
                ]
            },
            {
                "command": "timeout 60 ./nqueens -n 4 12",
                "error": "        Program terminated with signal 6 (SIGABRT) \n        --------------------------------------------\n        Program output:\n        Solving N = 12\n\n        StdErr output:\n        nqueens: list.c:63: list_init: Assertion `list != ((void *)0)' failed.\ntimeout: the monitored command dumped core\n\n        ",
                "nthreads": 4,
                "passed": 0,
                "run_count": 1,
                "runs": [
                    {
                        "command": "timeout 60 ./nqueens -n 4 12",
                        "error": "        Program terminated with signal 6 (SIGABRT) \n        --------------------------------------------\n        Program output:\n        Solving N = 12\n\n        StdErr output:\n        nqueens: list.c:63: list_init: Assertion `list != ((void *)0)' failed.\ntimeout: the monitored command dumped core\n\n        ",
                        "nthreads": 4
                    }
                ]
            },
            {
                "command": "timeout 60 ./nqueens -n 8 12",
                "error": "        Program terminated with signal 6 (SIGABRT) \n        --------------------------------------------\n        Program output:\n        Solving N = 12\n\n        StdErr output:\n        nqueens: list.c:63: list_init: Assertion `list != ((void *)0)' failed.\ntimeout: the monitored command dumped core\n\n        ",
                "nthreads": 8,
                "passed": 0,
                "run_count": 1,
                "runs": [
                    {
                        "command": "timeout 60 ./nqueens -n 8 12",
                        "error": "        Program terminated with signal 6 (SIGABRT) \n        --------------------------------------------\n        Program output:\n        Solving N = 12\n\n        StdErr output:\n        nqueens: list.c:63: list_init: Assertion `list != ((void *)0)' failed.\ntimeout: the monitored command dumped core\n\n        ",
                        "nthreads": 8
                    }
                ]
            },
            {
                "command": "timeout 60 ./nqueens -n 16 12",
                "error": "        Program terminated with signal 6 (SIGABRT) \n        --------------------------------------------\n        Program output:\n        Solving N = 12\n\n        StdErr output:\n        nqueens: list.c:63: list_init: Assertion `list != ((void *)0)' failed.\ntimeout: the monitored command dumped core\n\n        ",
                "nthreads": 16,
                "passed": 0,
                "run_count": 1,
                "runs": [
                    {
                        "command": "timeout 60 ./nqueens -n 16 12",
                        "error": "        Program terminated with signal 6 (SIGABRT) \n        --------------------------------------------\n        Program output:\n        Solving N = 12\n\n        StdErr output:\n        nqueens: list.c:63: list_init: Assertion `list != ((void *)0)' failed.\ntimeout: the monitored command dumped core\n\n        ",
                        "nthreads": 16
                    }
                ]
            }
        ],
        "nqueens 13": [
            {
                "command": "timeout 60 ./nqueens -n 5 13",
                "error": "        Program terminated with signal 11 (SIGSEGV) \n        --------------------------------------------\n        Program output:\n        \n        StdErr output:\n        nqueens: list.c:63: list_init: Assertion `list != ((void *)0)' failed.\ntimeout: the monitored command dumped core\n\n        ",
                "nthreads": 5,
                "passed": 0,
                "run_count": 1,
                "runs": [
                    {
                        "command": "timeout 60 ./nqueens -n 5 13",
                        "error": "        Program terminated with signal 11 (SIGSEGV) \n        --------------------------------------------\n        Program output:\n        \n        StdErr output:\n        nqueens: list.c:63: list_init: Assertion `list != ((void *)0)' failed.\ntimeout: the monitored command dumped core\n\n        ",
                        "nthreads": 5
                    }
                ]
            },
            {
                "command": "timeout 60 ./nqueens -n 10 13",
                "error": "        Program terminated with signal 11 (SIGSEGV) \n        --------------------------------------------\n        Program output:\n        Solving N = 13\n\n        StdErr output:\n        nqueens: list.c:63: list_init: Assertion `list != ((void *)0)' failed.\ntimeout: the monitored command dumped core\n\n        ",
                "nthreads": 10,
                "passed": 0,
                "run_count": 1,
                "runs": [
                    {
                        "command": "timeout 60 ./nqueens -n 10 13",
                        "error": "        Program terminated with signal 11 (SIGSEGV) \n        --------------------------------------------\n        Program output:\n        Solving N = 13\n\n        StdErr output:\n        nqueens: list.c:63: list_init: Assertion `list != ((void *)0)' failed.\ntimeout: the monitored command dumped core\n\n        ",
                        "nthreads": 10
                    }
                ]
            },
            {
                "command": "timeout 60 ./nqueens -n 20 13",
                "error": "        Program terminated with signal 6 (SIGABRT) \n        --------------------------------------------\n        Program output:\n        Solving N = 13\n\n        StdErr output:\n        nqueens: list.c:63: list_init: Assertion `list != ((void *)0)' failed.\ntimeout: the monitored command dumped core\n\n        ",
                "nthreads": 20,
                "passed": 0,
                "run_count": 1,
                "runs": [
                    {
                        "command": "timeout 60 ./nqueens -n 20 13",
                        "error": "        Program terminated with signal 6 (SIGABRT) \n        --------------------------------------------\n        Program output:\n        Solving N = 13\n\n        StdErr output:\n        nqueens: list.c:63: list_init: Assertion `list != ((void *)0)' failed.\ntimeout: the monitored command dumped core\n\n        ",
                        "nthreads": 20
                    }
                ]
            }
        ]
    },
    "psum": {
        "psum_test large": [
            {
                "command": "timeout 60 ./psum_test -n 4 1000000000",
                "error": "        Program terminated with signal 6 (SIGABRT) \n        --------------------------------------------\n        Program output:\n        \n        StdErr output:\n        psum_test: list.c:63: list_init: Assertion `list != ((void *)0)' failed.\ntimeout: the monitored command dumped core\n\n        ",
                "nthreads": 4,
                "passed": 0,
                "run_count": 1,
                "runs": [
                    {
                        "command": "timeout 60 ./psum_test -n 4 1000000000",
                        "error": "        Program terminated with signal 6 (SIGABRT) \n        --------------------------------------------\n        Program output:\n        \n        StdErr output:\n        psum_test: list.c:63: list_init: Assertion `list != ((void *)0)' failed.\ntimeout: the monitored command dumped core\n\n        ",
                        "nthreads": 4
                    }
                ]
            },
            {
                "command": "timeout 60 ./psum_test -n 8 1000000000",
                "error": "        Program terminated with signal 11 (SIGSEGV) \n        --------------------------------------------\n        Program output:\n        \n        StdErr output:\n        psum_test: list.c:63: list_init: Assertion `list != ((void *)0)' failed.\ntimeout: the monitored command dumped core\n\n        ",
                "nthreads": 8,
                "passed": 0,
                "run_count": 1,
                "runs": [
                    {
                        "command": "timeout 60 ./psum_test -n 8 1000000000",
                        "error": "        Program terminated with signal 11 (SIGSEGV) \n        --------------------------------------------\n        Program output:\n        \n        StdErr output:\n        psum_test: list.c:63: list_init: Assertion `list != ((void *)0)' failed.\ntimeout: the monitored command dumped core\n\n        ",
                        "nthreads": 8
                    }
                ]
            },
            {
                "command": "timeout 60 ./psum_test -n 16 1000000000",
                "error": "        Program terminated with signal 11 (SIGSEGV) \n        --------------------------------------------\n        Program output:\n        \n        StdErr output:\n        psum_test: list.c:63: list_init: Assertion `list != ((void *)0)' failed.\ntimeout: the monitored command dumped core\n\n        ",
                "nthreads": 16,
                "passed": 0,
                "run_count": 1,
                "runs": [
                    {
                        "command": "timeout 60 ./psum_test -n 16 1000000000",
                        "error": "        Program terminated with signal 11 (SIGSEGV) \n        --------------------------------------------\n        Program output:\n        \n        StdErr output:\n        psum_test: list.c:63: list_init: Assertion `list != ((void *)0)' failed.\ntimeout: the monitored command dumped core\n\n        ",
                        "nthreads": 16
                    }
                ]
            }
        ],
        "psum_test medium": [
            {
                "command": "timeout 15 ./psum_test -n 1 100000000",
                "error": "        Program terminated with signal 6 (SIGABRT) \n        --------------------------------------------\n        Program output:\n        \n        StdErr output:\n        psum_test: list.c:63: list_init: Assertion `list != ((void *)0)' failed.\ntimeout: the monitored command dumped core\n\n        ",
                "nthreads": 1,
                "passed": 0,
                "run_count": 1,
                "runs": [
                    {
                        "command": "timeout 15 ./psum_test -n 1 100000000",
                        "error": "        Program terminated with signal 6 (SIGABRT) \n        --------------------------------------------\n        Program output:\n        \n        StdErr output:\n        psum_test: list.c:63: list_init: Assertion `list != ((void *)0)' failed.\ntimeout: the monitored command dumped core\n\n        ",
                        "nthreads": 1
                    }
                ]
            },
            {
                "command": "timeout 15 ./psum_test -n 2 100000000",
                "error": "        Program terminated with signal 6 (SIGABRT) \n        --------------------------------------------\n        Program output:\n        \n        StdErr output:\n        psum_test: list.c:63: list_init: Assertion `list != ((void *)0)' failed.\ntimeout: the monitored command dumped core\n\n        ",
                "nthreads": 2,
                "passed": 0,
                "run_count": 1,
                "runs": [
                    {
                        "command": "timeout 15 ./psum_test -n 2 100000000",
                        "error": "        Program terminated with signal 6 (SIGABRT) \n        --------------------------------------------\n        Program output:\n        \n        StdErr output:\n        psum_test: list.c:63: list_init: Assertion `list != ((void *)0)' failed.\ntimeout: the monitored command dumped core\n\n        ",
                        "nthreads": 2
                    }
                ]
            },
            {
                "command": "timeout 15 ./psum_test -n 4 100000000",
                "error": "        Program terminated with signal 6 (SIGABRT) \n        --------------------------------------------\n        Program output:\n        \n        StdErr output:\n        psum_test: list.c:63: list_init: Assertion `list != ((void *)0)' failed.\ntimeout: the monitored command dumped core\n\n        ",
                "nthreads": 4,
                "passed": 0,
                "run_count": 1,
                "runs": [
                    {
                        "command": "timeout 15 ./psum_test -n 4 100000000",
                        "error": "        Program terminated with signal 6 (SIGABRT) \n        --------------------------------------------\n        Program output:\n        \n        StdErr output:\n        psum_test: list.c:63: list_init: Assertion `list != ((void *)0)' failed.\ntimeout: the monitored command dumped core\n\n        ",
                        "nthreads": 4
                    }
                ]
            },
            {
                "command": "timeout 15 ./psum_test -n 8 100000000",
                "error": "        Program terminated with signal 6 (SIGABRT) \n        --------------------------------------------\n        Program output:\n        \n        StdErr output:\n        psum_test: list.c:63: list_init: Assertion `list != ((void *)0)' failed.\ntimeout: the monitored command dumped core\n\n        ",
                "nthreads": 8,
                "passed": 0,
                "run_count": 1,
                "runs": [
                    {
                        "command": "timeout 15 ./psum_test -n 8 100000000",
                        "error": "        Program terminated with signal 6 (SIGABRT) \n        --------------------------------------------\n        Program output:\n        \n        StdErr output:\n        psum_test: list.c:63: list_init: Assertion `list != ((void *)0)' failed.\ntimeout: the monitored command dumped core\n\n        ",
                        "nthreads": 8
                    }
                ]
            },
            {
                "command": "timeout 15 ./psum_test -n 16 100000000",
                "error": "        Program terminated with signal 6 (SIGABRT) \n        --------------------------------------------\n        Program output:\n        \n        StdErr output:\n        psum_test: list.c:63: list_init: Assertion `list != ((void *)0)' failed.\ntimeout: the monitored command dumped core\n\n        ",
                "nthreads": 16,
                "passed": 0,
                "run_count": 1,
                "runs": [
                    {
                        "command": "timeout 15 ./psum_test -n 16 100000000",
                        "error": "        Program terminated with signal 6 (SIGABRT) \n        --------------------------------------------\n        Program output:\n        \n        StdErr output:\n        psum_test: list.c:63: list_init: Assertion `list != ((void *)0)' failed.\ntimeout: the monitored command dumped core\n\n        ",
                        "nthreads": 16
                    }
                ]
            }
        ],
        "psum_test small": [
            {
                "command": "timeout 15 ./psum_test -n 1 10000000",
                "error": "        Program terminated with signal 6 (SIGABRT) \n        --------------------------------------------\n        Program output:\n        \n        StdErr output:\n        psum_test: list.c:63: list_init: Assertion `list != ((void *)0)' failed.\ntimeout: the monitored command dumped core\n\n        ",
                "nthreads": 1,
                "passed": 0,
                "run_count": 1,
                "runs": [
                    {
                        "command": "timeout 15 ./psum_test -n 1 10000000",
                        "error": "        Program terminated with signal 6 (SIGABRT) \n        --------------------------------------------\n        Program output:\n        \n        StdErr output:\n        psum_test: list.c:63: list_init: Assertion `list != ((void *)0)' failed.\ntimeout: the monitored command dumped core\n\n        ",
                        "nthreads": 1
                    }
                ]
            },
            {
                "command": "timeout 15 ./psum_test -n 2 10000000",
                "error": "        Program terminated with signal 11 (SIGSEGV) \n        --------------------------------------------\n        Program output:\n        \n        StdErr output:\n        psum_test: list.c:63: list_init: Assertion `list != ((void *)0)' failed.\ntimeout: the monitored command dumped core\n\n        ",
                "nthreads": 2,
                "passed": 0,
                "run_count": 1,
                "runs": [
                    {
                        "command": "timeout 15 ./psum_test -n 2 10000000",
                        "error": "        Program terminated with signal 11 (SIGSEGV) \n        --------------------------------------------\n        Program output:\n        \n        StdErr output:\n        psum_test: list.c:63: list_init: Assertion `list != ((void *)0)' failed.\ntimeout: the monitored command dumped core\n\n        ",
                        "nthreads": 2
                    }
                ]
            },
            {
                "command": "timeout 15 ./psum_test -n 4 10000000",
                "error": "        Program terminated with signal 11 (SIGSEGV) \n        --------------------------------------------\n        Program output:\n        \n        StdErr output:\n        psum_test: list.c:63: list_init: Assertion `list != ((void *)0)' failed.\ntimeout: the monitored command dumped core\n\n        ",
                "nthreads": 4,
                "passed": 0,
                "run_count": 1,
                "runs": [
                    {
                        "command": "timeout 15 ./psum_test -n 4 10000000",
                        "error": "        Program terminated with signal 11 (SIGSEGV) \n        --------------------------------------------\n        Program output:\n        \n        StdErr output:\n        psum_test: list.c:63: list_init: Assertion `list != ((void *)0)' failed.\ntimeout: the monitored command dumped core\n\n        ",
                        "nthreads": 4
                    }
                ]
            },
            {
                "command": "timeout 15 ./psum_test -n 8 10000000",
                "error": "        Program terminated with signal 11 (SIGSEGV) \n        --------------------------------------------\n        Program output:\n        \n        StdErr output:\n        psum_test: list.c:63: list_init: Assertion `list != ((void *)0)' failed.\ntimeout: the monitored command dumped core\n\n        ",
                "nthreads": 8,
                "passed": 0,
                "run_count": 1,
                "runs": [
                    {
                        "command": "timeout 15 ./psum_test -n 8 10000000",
                        "error": "        Program terminated with signal 11 (SIGSEGV) \n        --------------------------------------------\n        Program output:\n        \n        StdErr output:\n        psum_test: list.c:63: list_init: Assertion `list != ((void *)0)' failed.\ntimeout: the monitored command dumped core\n\n        ",
                        "nthreads": 8
                    }
                ]
            },
            {
                "command": "timeout 15 ./psum_test -n 16 10000000",
                "error": "        Program terminated with signal 6 (SIGABRT) \n        --------------------------------------------\n        Program output:\n        \n        StdErr output:\n        psum_test: list.c:63: list_init: Assertion `list != ((void *)0)' failed.\ntimeout: the monitored command dumped core\n\n        ",
                "nthreads": 16,
                "passed": 0,
                "run_count": 1,
                "runs": [
                    {
                        "command": "timeout 15 ./psum_test -n 16 10000000",
                        "error": "        Program terminated with signal 6 (SIGABRT) \n        --------------------------------------------\n        Program output:\n        \n        StdErr output:\n        psum_test: list.c:63: list_init: Assertion `list != ((void *)0)' failed.\ntimeout: the monitored command dumped core\n\n        ",
                        "nthreads": 16
                    }
                ]
            }
        ]
    },
    "quicksort": {
        "quicksort large": [
            {
                "command": "timeout 60 ./quicksort -n 5 -s 43 -d 16 200000000",
                "error": "        Program terminated with signal 6 (SIGABRT) \n        --------------------------------------------\n        Program output:\n        Using 5 threads, recursive parallel depth=16\n\n        StdErr output:\n        quicksort: list.c:63: list_init: Assertion `list != ((void *)0)' failed.\ntimeout: the monitored command dumped core\n\n        ",
                "nthreads": 5,
                "passed": 0,
                "run_count": 1,
                "runs": [
                    {
                        "command": "timeout 60 ./quicksort -n 5 -s 43 -d 16 200000000",
                        "error": "        Program terminated with signal 6 (SIGABRT) \n        --------------------------------------------\n        Program output:\n        Using 5 threads, recursive parallel depth=16\n\n        StdErr output:\n        quicksort: list.c:63: list_init: Assertion `list != ((void *)0)' failed.\ntimeout: the monitored command dumped core\n\n        ",
                        "nthreads": 5
                    }
                ]
            },
            {
                "command": "timeout 60 ./quicksort -n 10 -s 43 -d 16 200000000",
                "error": "        Program terminated with signal 6 (SIGABRT) \n        --------------------------------------------\n        Program output:\n        Using 10 threads, recursive parallel depth=16\n\n        StdErr output:\n        quicksort: list.c:63: list_init: Assertion `list != ((void *)0)' failed.\ntimeout: the monitored command dumped core\n\n        ",
                "nthreads": 10,
                "passed": 0,
                "run_count": 1,
                "runs": [
                    {
                        "command": "timeout 60 ./quicksort -n 10 -s 43 -d 16 200000000",
                        "error": "        Program terminated with signal 6 (SIGABRT) \n        --------------------------------------------\n        Program output:\n        Using 10 threads, recursive parallel depth=16\n\n        StdErr output:\n        quicksort: list.c:63: list_init: Assertion `list != ((void *)0)' failed.\ntimeout: the monitored command dumped core\n\n        ",
                        "nthreads": 10
                    }
                ]
            },
            {
                "command": "timeout 60 ./quicksort -n 20 -s 43 -d 16 200000000",
                "error": "        Program terminated with signal 6 (SIGABRT) \n        --------------------------------------------\n        Program output:\n        Using 20 threads, recursive parallel depth=16\n\n        StdErr output:\n        quicksort: list.c:63: list_init: Assertion `list != ((void *)0)' failed.\ntimeout: the monitored command dumped core\n\n        ",
                "nthreads": 20,
                "passed": 0,
                "run_count": 1,
                "runs": [
                    {
                        "command": "timeout 60 ./quicksort -n 20 -s 43 -d 16 200000000",
                        "error": "        Program terminated with signal 6 (SIGABRT) \n        --------------------------------------------\n        Program output:\n        Using 20 threads, recursive parallel depth=16\n\n        StdErr output:\n        quicksort: list.c:63: list_init: Assertion `list != ((void *)0)' failed.\ntimeout: the monitored command dumped core\n\n        ",
                        "nthreads": 20
                    }
                ]
            }
        ],
        "quicksort medium": [
            {
                "command": "timeout 15 ./quicksort -n 1 -s 43 -d 16 20000000",
                "error": "        Program terminated with signal 6 (SIGABRT) \n        --------------------------------------------\n        Program output:\n        Using 1 threads, recursive parallel depth=16\n\n        StdErr output:\n        quicksort: list.c:63: list_init: Assertion `list != ((void *)0)' failed.\ntimeout: the monitored command dumped core\n\n        ",
                "nthreads": 1,
                "passed": 0,
                "run_count": 1,
                "runs": [
                    {
                        "command": "timeout 15 ./quicksort -n 1 -s 43 -d 16 20000000",
                        "error": "        Program terminated with signal 6 (SIGABRT) \n        --------------------------------------------\n        Program output:\n        Using 1 threads, recursive parallel depth=16\n\n        StdErr output:\n        quicksort: list.c:63: list_init: Assertion `list != ((void *)0)' failed.\ntimeout: the monitored command dumped core\n\n        ",
                        "nthreads": 1
                    }
                ]
            },
            {
                "command": "timeout 15 ./quicksort -n 2 -s 43 -d 16 20000000",
                "error": "        Program terminated with signal 6 (SIGABRT) \n        --------------------------------------------\n        Program output:\n        Using 2 threads, recursive parallel depth=16\n\n        StdErr output:\n        quicksort: list.c:63: list_init: Assertion `list != ((void *)0)' failed.\ntimeout: the monitored command dumped core\n\n        ",
                "nthreads": 2,
                "passed": 0,
                "run_count": 1,
                "runs": [
                    {
                        "command": "timeout 15 ./quicksort -n 2 -s 43 -d 16 20000000",
                        "error": "        Program terminated with signal 6 (SIGABRT) \n        --------------------------------------------\n        Program output:\n        Using 2 threads, recursive parallel depth=16\n\n        StdErr output:\n        quicksort: list.c:63: list_init: Assertion `list != ((void *)0)' failed.\ntimeout: the monitored command dumped core\n\n        ",
                        "nthreads": 2
                    }
                ]
            },
            {
                "command": "timeout 15 ./quicksort -n 4 -s 43 -d 16 20000000",
                "error": "        Program terminated with signal 6 (SIGABRT) \n        --------------------------------------------\n        Program output:\n        Using 4 threads, recursive parallel depth=16\n\n        StdErr output:\n        quicksort: list.c:63: list_init: Assertion `list != ((void *)0)' failed.\ntimeout: the monitored command dumped core\n\n        ",
                "nthreads": 4,
                "passed": 0,
                "run_count": 1,
                "runs": [
                    {
                        "command": "timeout 15 ./quicksort -n 4 -s 43 -d 16 20000000",
                        "error": "        Program terminated with signal 6 (SIGABRT) \n        --------------------------------------------\n        Program output:\n        Using 4 threads, recursive parallel depth=16\n\n        StdErr output:\n        quicksort: list.c:63: list_init: Assertion `list != ((void *)0)' failed.\ntimeout: the monitored command dumped core\n\n        ",
                        "nthreads": 4
                    }
                ]
            },
            {
                "command": "timeout 15 ./quicksort -n 8 -s 43 -d 16 20000000",
                "error": "        Program terminated with signal 6 (SIGABRT) \n        --------------------------------------------\n        Program output:\n        Using 8 threads, recursive parallel depth=16\n\n        StdErr output:\n        quicksort: list.c:63: list_init: Assertion `list != ((void *)0)' failed.\ntimeout: the monitored command dumped core\n\n        ",
                "nthreads": 8,
                "passed": 0,
                "run_count": 1,
                "runs": [
                    {
                        "command": "timeout 15 ./quicksort -n 8 -s 43 -d 16 20000000",
                        "error": "        Program terminated with signal 6 (SIGABRT) \n        --------------------------------------------\n        Program output:\n        Using 8 threads, recursive parallel depth=16\n\n        StdErr output:\n        quicksort: list.c:63: list_init: Assertion `list != ((void *)0)' failed.\ntimeout: the monitored command dumped core\n\n        ",
                        "nthreads": 8
                    }
                ]
            },
            {
                "command": "timeout 15 ./quicksort -n 16 -s 43 -d 16 20000000",
                "error": "        Program terminated with signal 6 (SIGABRT) \n        --------------------------------------------\n        Program output:\n        Using 16 threads, recursive parallel depth=16\n\n        StdErr output:\n        quicksort: list.c:63: list_init: Assertion `list != ((void *)0)' failed.\ntimeout: the monitored command dumped core\n\n        ",
                "nthreads": 16,
                "passed": 0,
                "run_count": 1,
                "runs": [
                    {
                        "command": "timeout 15 ./quicksort -n 16 -s 43 -d 16 20000000",
                        "error": "        Program terminated with signal 6 (SIGABRT) \n        --------------------------------------------\n        Program output:\n        Using 16 threads, recursive parallel depth=16\n\n        StdErr output:\n        quicksort: list.c:63: list_init: Assertion `list != ((void *)0)' failed.\ntimeout: the monitored command dumped core\n\n        ",
                        "nthreads": 16
                    }
                ]
            }
        ],
        "quicksort small": [
            {
                "command": "timeout 15 ./quicksort -n 1 -s 43 -d 16 2000000",
                "error": "        Program terminated with signal 6 (SIGABRT) \n        --------------------------------------------\n        Program output:\n        Using 1 threads, recursive parallel depth=16\n\n        StdErr output:\n        quicksort: list.c:63: list_init: Assertion `list != ((void *)0)' failed.\ntimeout: the monitored command dumped core\n\n        ",
                "nthreads": 1,
                "passed": 0,
                "run_count": 1,
                "runs": [
                    {
                        "command": "timeout 15 ./quicksort -n 1 -s 43 -d 16 2000000",
                        "error": "        Program terminated with signal 6 (SIGABRT) \n        --------------------------------------------\n        Program output:\n        Using 1 threads, recursive parallel depth=16\n\n        StdErr output:\n        quicksort: list.c:63: list_init: Assertion `list != ((void *)0)' failed.\ntimeout: the monitored command dumped core\n\n        ",
                        "nthreads": 1
                    }
                ]
            },
            {
                "command": "timeout 15 ./quicksort -n 2 -s 43 -d 16 2000000",
                "error": "        Program terminated with signal 11 (SIGSEGV) \n        --------------------------------------------\n        Program output:\n        \n        StdErr output:\n        timeout: the monitored command dumped core\n\n        ",
                "nthreads": 2,
                "passed": 0,
                "run_count": 1,
                "runs": [
                    {
                        "command": "timeout 15 ./quicksort -n 2 -s 43 -d 16 2000000",
                        "error": "        Program terminated with signal 11 (SIGSEGV) \n        --------------------------------------------\n        Program output:\n        \n        StdErr output:\n        timeout: the monitored command dumped core\n\n        ",
                        "nthreads": 2
                    }
                ]
            },
            {
                "command": "timeout 15 ./quicksort -n 4 -s 43 -d 16 2000000",
                "error": "        Program terminated with signal 6 (SIGABRT) \n        --------------------------------------------\n        Program output:\n        Using 4 threads, recursive parallel depth=16\n\n        StdErr output:\n        quicksort: list.c:63: list_init: Assertion `list != ((void *)0)' failed.\ntimeout: the monitored command dumped core\n\n        ",
                "nthreads": 4,
                "passed": 0,
                "run_count": 1,
                "runs": [
                    {
                        "command": "timeout 15 ./quicksort -n 4 -s 43 -d 16 2000000",
                        "error": "        Program terminated with signal 6 (SIGABRT) \n        --------------------------------------------\n        Program output:\n        Using 4 threads, recursive parallel depth=16\n\n        StdErr output:\n        quicksort: list.c:63: list_init: Assertion `list != ((void *)0)' failed.\ntimeout: the monitored command dumped core\n\n        ",
                        "nthreads": 4
                    }
                ]
            },
            {
                "command": "timeout 15 ./quicksort -n 8 -s 43 -d 16 2000000",
                "error": "        Program terminated with signal 6 (SIGABRT) \n        --------------------------------------------\n        Program output:\n        Using 8 threads, recursive parallel depth=16\n\n        StdErr output:\n        quicksort: list.c:63: list_init: Assertion `list != ((void *)0)' failed.\ntimeout: the monitored command dumped core\n\n        ",
                "nthreads": 8,
                "passed": 0,
                "run_count": 1,
                "runs": [
                    {
                        "command": "timeout 15 ./quicksort -n 8 -s 43 -d 16 2000000",
                        "error": "        Program terminated with signal 6 (SIGABRT) \n        --------------------------------------------\n        Program output:\n        Using 8 threads, recursive parallel depth=16\n\n        StdErr output:\n        quicksort: list.c:63: list_init: Assertion `list != ((void *)0)' failed.\ntimeout: the monitored command dumped core\n\n        ",
                        "nthreads": 8
                    }
                ]
            },
            {
                "command": "timeout 15 ./quicksort -n 16 -s 43 -d 16 2000000",
                "error": "        Program terminated with signal 6 (SIGABRT) \n        --------------------------------------------\n        Program output:\n        Using 16 threads, recursive parallel depth=16\n\n        StdErr output:\n        quicksort: list.c:63: list_init: Assertion `list != ((void *)0)' failed.\ntimeout: the monitored command dumped core\n\n        ",
                "nthreads": 16,
                "passed": 0,
                "run_count": 1,
                "runs": [
                    {
                        "command": "timeout 15 ./quicksort -n 16 -s 43 -d 16 2000000",
                        "error": "        Program terminated with signal 6 (SIGABRT) \n        --------------------------------------------\n        Program output:\n        Using 16 threads, recursive parallel depth=16\n\n        StdErr output:\n        quicksort: list.c:63: list_init: Assertion `list != ((void *)0)' failed.\ntimeout: the monitored command dumped core\n\n        ",
                        "nthreads": 16
                    }
                ]
            }
        ]
    }
}
