{
    "basic1": {
        "basic test 1": [
            {
                "command": "timeout 15 ./threadpool_test -n 1",
                "cputime": 0.00016,
                "nthreads": 1,
                "passed": 1,
                "realtime": 0.000127,
                "ru_stime": 0.00016,
                "ru_utime": 0.0,
                "run_count": 1,
                "runs": [
                    {
                        "command": "timeout 15 ./threadpool_test -n 1",
                        "nthreads": 1,
                        "realtime": 0.000127,
                        "ru_nivcsw": 0,
                        "ru_nvcsw": 3,
                        "ru_stime": 0.00016,
                        "ru_utime": 0.0,
                        "stdout": "Test successful.\n"
                    }
                ]
            },
            {
                "command": "timeout 15 ./threadpool_test -n 2",
                "cputime": 0.000382,
                "nthreads": 2,
                "passed": 1,
                "realtime": 0.000201,
                "ru_stime": 0.000382,
                "ru_utime": 0.0,
                "run_count": 1,
                "runs": [
                    {
                        "command": "timeout 15 ./threadpool_test -n 2",
                        "nthreads": 2,
                        "realtime": 0.000201,
                        "ru_nivcsw": 0,
                        "ru_nvcsw": 7,
                        "ru_stime": 0.000382,
                        "ru_utime": 0.0,
                        "stdout": "Test successful.\n"
                    }
                ]
            },
            {
                "command": "timeout 15 ./threadpool_test -n 4",
                "cputime": 0.000402,
                "nthreads": 4,
                "passed": 1,
                "realtime": 0.000153,
                "ru_stime": 0.0,
                "ru_utime": 0.000402,
                "run_count": 1,
                "runs": [
                    {
                        "command": "timeout 15 ./threadpool_test -n 4",
                        "nthreads": 4,
                        "realtime": 0.000153,
                        "ru_nivcsw": 0,
                        "ru_nvcsw": 10,
                        "ru_stime": 0.0,
                        "ru_utime": 0.000402,
                        "stdout": "Test successful.\n"
                    }
                ]
            }
        ]
    },
    "basic2": {
        "basic test 2": [
            {
                "command": "timeout 15 ./threadpool_test2 -n 1",
                "cputime": 0.000549,
                "nthreads": 1,
                "passed": 1,
                "realtime": 0.000345,
                "ru_stime": 0.000549,
                "ru_utime": 0.0,
                "run_count": 1,
                "runs": [
                    {
                        "command": "timeout 15 ./threadpool_test2 -n 1",
                        "nthreads": 1,
                        "realtime": 0.000345,
                        "ru_nivcsw": 0,
                        "ru_nvcsw": 11,
                        "ru_stime": 0.000549,
                        "ru_utime": 0.0,
                        "stdout": "Test successful.\n"
                    }
                ]
            },
            {
                "command": "timeout 15 ./threadpool_test2 -n 2",
                "cputime": 0.000883,
                "nthreads": 2,
                "passed": 1,
                "realtime": 0.000394,
                "ru_stime": 0.000883,
                "ru_utime": 0.0,
                "run_count": 1,
                "runs": [
                    {
                        "command": "timeout 15 ./threadpool_test2 -n 2",
                        "nthreads": 2,
                        "realtime": 0.000394,
                        "ru_nivcsw": 0,
                        "ru_nvcsw": 45,
                        "ru_stime": 0.000883,
                        "ru_utime": 0.0,
                        "stdout": "Test successful.\n"
                    }
                ]
            },
            {
                "command": "timeout 15 ./threadpool_test2 -n 4",
                "cputime": 0.002679,
                "nthreads": 4,
                "passed": 1,
                "realtime": 0.000828,
                "ru_stime": 0.002679,
                "ru_utime": 0.0,
                "run_count": 1,
                "runs": [
                    {
                        "command": "timeout 15 ./threadpool_test2 -n 4",
                        "nthreads": 4,
                        "realtime": 0.000828,
                        "ru_nivcsw": 0,
                        "ru_nvcsw": 247,
                        "ru_stime": 0.002679,
                        "ru_utime": 0.0,
                        "stdout": "Test successful.\n"
                    }
                ]
            }
        ]
    },
    "basic3": {
        "basic test 3": [
            {
                "command": "timeout 15 ./threadpool_test3 -n 1",
                "cputime": 0.000137,
                "nthreads": 1,
                "passed": 1,
                "realtime": 0.000104,
                "ru_stime": 0.000137,
                "ru_utime": 0.0,
                "run_count": 1,
                "runs": [
                    {
                        "command": "timeout 15 ./threadpool_test3 -n 1",
                        "nthreads": 1,
                        "realtime": 0.000104,
                        "ru_nivcsw": 0,
                        "ru_nvcsw": 4,
                        "ru_stime": 0.000137,
                        "ru_utime": 0.0,
                        "stdout": "Test successful.\n"
                    }
                ]
            },
            {
                "command": "timeout 15 ./threadpool_test3 -n 2",
                "cputime": 0.000257,
                "nthreads": 2,
                "passed": 1,
                "realtime": 0.000159,
                "ru_stime": 0.000257,
                "ru_utime": 0.0,
                "run_count": 1,
                "runs": [
                    {
                        "command": "timeout 15 ./threadpool_test3 -n 2",
                        "nthreads": 2,
                        "realtime": 0.000159,
                        "ru_nivcsw": 0,
                        "ru_nvcsw": 7,
                        "ru_stime": 0.000257,
                        "ru_utime": 0.0,
                        "stdout": "Test successful.\n"
                    }
                ]
            },
            {
                "command": "timeout 15 ./threadpool_test3 -n 4",
                "cputime": 0.000475,
                "nthreads": 4,
                "passed": 1,
                "realtime": 0.000189,
                "ru_stime": 0.000475,
                "ru_utime": 0.0,
                "run_count": 1,
                "runs": [
                    {
                        "command": "timeout 15 ./threadpool_test3 -n 4",
                        "nthreads": 4,
                        "realtime": 0.000189,
                        "ru_nivcsw": 0,
                        "ru_nvcsw": 15,
                        "ru_stime": 0.000475,
                        "ru_utime": 0.0,
                        "stdout": "Test successful.\n"
                    }
                ]
            }
        ]
    },
    "basic4": {
        "basic test 4": [
            {
                "command": "timeout 15 ./threadpool_test4 -n 2",
                "cputime": 0.002115,
                "nthreads": 2,
                "passed": 1,
                "realtime": 1.001922,
                "ru_stime": 0.001814,
                "ru_utime": 0.000301,
                "run_count": 1,
                "runs": [
                    {
                        "command": "timeout 15 ./threadpool_test4 -n 2",
                        "nthreads": 2,
                        "realtime": 1.001922,
                        "ru_nivcsw": 0,
                        "ru_nvcsw": 73,
                        "ru_stime": 0.001814,
                        "ru_utime": 0.000301,
                        "stdout": "starting 40 tasks...\nTest successful.\n"
                    }
                ]
            },
            {
                "command": "timeout 15 ./threadpool_test4 -n 4",
                "cputime": 0.002499,
                "nthreads": 4,
                "passed": 1,
                "realtime": 0.501389,
                "ru_stime": 0.00241,
                "ru_utime": 8.9e-05,
                "run_count": 1,
                "runs": [
                    {
                        "command": "timeout 15 ./threadpool_test4 -n 4",
                        "nthreads": 4,
                        "realtime": 0.501389,
                        "ru_nivcsw": 0,
                        "ru_nvcsw": 84,
                        "ru_stime": 0.00241,
                        "ru_utime": 8.9e-05,
                        "stdout": "starting 40 tasks...\nTest successful.\n"
                    }
                ]
            }
        ]
    },
    "basic5": {
        "basic test 5": [
            {
                "command": "timeout 15 ./threadpool_test5 -n 2",
                "cputime": 0.000652,
                "nthreads": 2,
                "passed": 1,
                "realtime": 0.200433,
                "ru_stime": 0.000326,
                "ru_utime": 0.000326,
                "run_count": 1,
                "runs": [
                    {
                        "command": "timeout 15 ./threadpool_test5 -n 2",
                        "nthreads": 2,
                        "realtime": 0.200433,
                        "ru_nivcsw": 0,
                        "ru_nvcsw": 17,
                        "ru_stime": 0.000326,
                        "ru_utime": 0.000326,
                        "stdout": "starting 40 tasks...\nTest successful.\n"
                    }
                ]
            },
            {
                "command": "timeout 15 ./threadpool_test5 -n 4",
                "cputime": 0.00132,
                "nthreads": 4,
                "passed": 1,
                "realtime": 0.200579,
                "ru_stime": 0.00132,
                "ru_utime": 0.0,
                "run_count": 1,
                "runs": [
                    {
                        "command": "timeout 15 ./threadpool_test5 -n 4",
                        "nthreads": 4,
                        "realtime": 0.200579,
                        "ru_nivcsw": 0,
                        "ru_nvcsw": 60,
                        "ru_stime": 0.00132,
                        "ru_utime": 0.0,
                        "stdout": "starting 40 tasks...\nTest successful.\n"
                    }
                ]
            }
        ]
    },
    "fibonacci": {
        "fibonacci 30": [
            {
                "command": "timeout 60 ./fib_test -n 1 30",
                "cputime": 1.039308,
                "nthreads": 1,
                "passed": 1,
                "realtime": 0.543823,
                "ru_stime": 0.450965,
                "ru_utime": 0.588343,
                "run_count": 1,
                "runs": [
                    {
                        "command": "timeout 60 ./fib_test -n 1 30",
                        "nthreads": 1,
                        "realtime": 0.543823,
                        "ru_nivcsw": 0,
                        "ru_nvcsw": 7381,
                        "ru_stime": 0.450965,
                        "ru_utime": 0.588343,
                        "stdout": "starting...\nresult ok.\n"
                    }
                ]
            },
            {
                "command": "timeout 60 ./fib_test -n 2 30",
                "cputime": 2.316274,
                "nthreads": 2,
                "passed": 1,
                "realtime": 0.834573,
                "ru_stime": 1.450984,
                "ru_utime": 0.86529,
                "run_count": 1,
                "runs": [
                    {
                        "command": "timeout 60 ./fib_test -n 2 30",
                        "nthreads": 2,
                        "realtime": 0.834573,
                        "ru_nivcsw": 2,
                        "ru_nvcsw": 203393,
                        "ru_stime": 1.450984,
                        "ru_utime": 0.86529,
                        "stdout": "starting...\nresult ok.\n"
                    }
                ]
            },
            {
                "command": "timeout 60 ./fib_test -n 4 30",
                "cputime": 3.6884,
                "nthreads": 4,
                "passed": 1,
                "realtime": 0.888798,
                "ru_stime": 2.896453,
                "ru_utime": 0.791947,
                "run_count": 1,
                "runs": [
                    {
                        "command": "timeout 60 ./fib_test -n 4 30",
                        "nthreads": 4,
                        "realtime": 0.888798,
                        "ru_nivcsw": 3,
                        "ru_nvcsw": 381066,
                        "ru_stime": 2.896453,
                        "ru_utime": 0.791947,
                        "stdout": "starting...\nresult ok.\n"
                    }
                ]
            },
            {
                "command": "timeout 60 ./fib_test -n 8 30",
                "cputime": 8.622494,
                "nthreads": 8,
                "passed": 1,
                "realtime": 1.168445,
                "ru_stime": 7.694391,
                "ru_utime": 0.928103,
                "run_count": 1,
                "runs": [
                    {
                        "command": "timeout 60 ./fib_test -n 8 30",
                        "nthreads": 8,
                        "realtime": 1.168445,
                        "ru_nivcsw": 11,
                        "ru_nvcsw": 586976,
                        "ru_stime": 7.694391,
                        "ru_utime": 0.928103,
                        "stdout": "starting...\nresult ok.\n"
                    }
                ]
            },
            {
                "command": "timeout 60 ./fib_test -n 16 30",
                "cputime": 12.503698,
                "nthreads": 16,
                "passed": 1,
                "realtime": 0.931256,
                "ru_stime": 11.779191,
                "ru_utime": 0.724507,
                "run_count": 1,
                "runs": [
                    {
                        "command": "timeout 60 ./fib_test -n 16 30",
                        "nthreads": 16,
                        "realtime": 0.931256,
                        "ru_nivcsw": 47,
                        "ru_nvcsw": 194875,
                        "ru_stime": 11.779191,
                        "ru_utime": 0.724507,
                        "stdout": "starting...\nresult ok.\n"
                    }
                ]
            }
        ],
        "fibonacci 38": [
            {
                "command": "timeout 60 ./fib_test -n 1 38",
                "cputime": 47.32312,
                "nthreads": 1,
                "passed": 1,
                "realtime": 24.909889,
                "ru_stime": 20.50154,
                "ru_utime": 26.82158,
                "run_count": 1,
                "runs": [
                    {
                        "command": "timeout 60 ./fib_test -n 1 38",
                        "nthreads": 1,
                        "realtime": 24.909889,
                        "ru_nivcsw": 14,
                        "ru_nvcsw": 783932,
                        "ru_stime": 20.50154,
                        "ru_utime": 26.82158,
                        "stdout": "starting...\nresult ok.\n"
                    }
                ]
            },
            {
                "command": "timeout 60 ./fib_test -n 2 38",
                "cputime": 98.881817,
                "nthreads": 2,
                "passed": 1,
                "realtime": 35.385639,
                "ru_stime": 62.530626,
                "ru_utime": 36.351191,
                "run_count": 1,
                "runs": [
                    {
                        "command": "timeout 60 ./fib_test -n 2 38",
                        "nthreads": 2,
                        "realtime": 35.385639,
                        "ru_nivcsw": 56,
                        "ru_nvcsw": 7852959,
                        "ru_stime": 62.530626,
                        "ru_utime": 36.351191,
                        "stdout": "starting...\nresult ok.\n"
                    }
                ]
            },
            {
                "command": "timeout 60 ./fib_test -n 4 38",
                "cputime": 166.49902,
                "nthreads": 4,
                "passed": 1,
                "realtime": 40.975231,
                "ru_stime": 126.748059,
                "ru_utime": 39.750961,
                "run_count": 1,
                "runs": [
                    {
                        "command": "timeout 60 ./fib_test -n 4 38",
                        "nthreads": 4,
                        "realtime": 40.975231,
                        "ru_nivcsw": 81,
                        "ru_nvcsw": 17228854,
                        "ru_stime": 126.748059,
                        "ru_utime": 39.750961,
                        "stdout": "starting...\nresult ok.\n"
                    }
                ]
            }
        ]
    },
    "mergesort": {
        "mergesort large": [
            {
                "command": "timeout 60 ./mergesort -n 5 -s 43 200000000",
                "cputime": 29.546012,
                "nthreads": 5,
                "passed": 1,
                "realtime": 7.961235,
                "ru_stime": 0.235219,
                "ru_utime": 29.310793,
                "run_count": 1,
                "runs": [
                    {
                        "command": "timeout 60 ./mergesort -n 5 -s 43 200000000",
                        "nthreads": 5,
                        "realtime": 7.961235,
                        "ru_nivcsw": 46,
                        "ru_nvcsw": 270,
                        "ru_stime": 0.235219,
                        "ru_utime": 29.310793,
                        "stdout": "Using 5 threads, parallel/serials threshold=1000 insertion sort threshold=16\nmergesort parallel result ok. Timings follow\nuser time: 29.310793s\nsystem time: 0.235219s\nreal time: 7.961235s\n"
                    }
                ]
            },
            {
                "command": "timeout 60 ./mergesort -n 10 -s 43 200000000",
                "cputime": 30.441315000000003,
                "nthreads": 10,
                "passed": 1,
                "realtime": 5.594357,
                "ru_stime": 0.253181,
                "ru_utime": 30.188134,
                "run_count": 1,
                "runs": [
                    {
                        "command": "timeout 60 ./mergesort -n 10 -s 43 200000000",
                        "nthreads": 10,
                        "realtime": 5.594357,
                        "ru_nivcsw": 62,
                        "ru_nvcsw": 738,
                        "ru_stime": 0.253181,
                        "ru_utime": 30.188134,
                        "stdout": "Using 10 threads, parallel/serials threshold=1000 insertion sort threshold=16\nmergesort parallel result ok. Timings follow\nuser time: 30.188134s\nsystem time: 0.253181s\nreal time: 5.594357s\n"
                    }
                ]
            },
            {
                "command": "timeout 60 ./mergesort -n 20 -s 43 200000000",
                "cputime": 33.853094,
                "nthreads": 20,
                "passed": 1,
                "realtime": 4.327496,
                "ru_stime": 0.312371,
                "ru_utime": 33.540723,
                "run_count": 1,
                "runs": [
                    {
                        "command": "timeout 60 ./mergesort -n 20 -s 43 200000000",
                        "nthreads": 20,
                        "realtime": 4.327496,
                        "ru_nivcsw": 85,
                        "ru_nvcsw": 1884,
                        "ru_stime": 0.312371,
                        "ru_utime": 33.540723,
                        "stdout": "Using 20 threads, parallel/serials threshold=1000 insertion sort threshold=16\nmergesort parallel result ok. Timings follow\nuser time: 33.540723s\nsystem time: 0.312371s\nreal time: 4.327496s\n"
                    }
                ]
            }
        ],
        "mergesort medium": [
            {
                "command": "timeout 15 ./mergesort -n 1 -s 43 20000000",
                "cputime": 2.480416,
                "nthreads": 1,
                "passed": 1,
                "realtime": 1.300353,
                "ru_stime": 0.015008,
                "ru_utime": 2.465408,
                "run_count": 1,
                "runs": [
                    {
                        "command": "timeout 15 ./mergesort -n 1 -s 43 20000000",
                        "nthreads": 1,
                        "realtime": 1.300353,
                        "ru_nivcsw": 4,
                        "ru_nvcsw": 7,
                        "ru_stime": 0.015008,
                        "ru_utime": 2.465408,
                        "stdout": "Using 1 threads, parallel/serials threshold=1000 insertion sort threshold=16\nmergesort parallel result ok. Timings follow\nuser time: 2.465408s\nsystem time: 0.015008s\nreal time: 1.300353s\n"
                    }
                ]
            },
            {
                "command": "timeout 15 ./mergesort -n 2 -s 43 20000000",
                "cputime": 2.50174,
                "nthreads": 2,
                "passed": 1,
                "realtime": 1.039485,
                "ru_stime": 0.014887,
                "ru_utime": 2.486853,
                "run_count": 1,
                "runs": [
                    {
                        "command": "timeout 15 ./mergesort -n 2 -s 43 20000000",
                        "nthreads": 2,
                        "realtime": 1.039485,
                        "ru_nivcsw": 3,
                        "ru_nvcsw": 21,
                        "ru_stime": 0.014887,
                        "ru_utime": 2.486853,
                        "stdout": "Using 2 threads, parallel/serials threshold=1000 insertion sort threshold=16\nmergesort parallel result ok. Timings follow\nuser time: 2.486853s\nsystem time: 0.014887s\nreal time: 1.039485s\n"
                    }
                ]
            },
            {
                "command": "timeout 15 ./mergesort -n 4 -s 43 20000000",
                "cputime": 2.646414,
                "nthreads": 4,
                "passed": 1,
                "realtime": 0.851063,
                "ru_stime": 0.01611,
                "ru_utime": 2.630304,
                "run_count": 1,
                "runs": [
                    {
                        "command": "timeout 15 ./mergesort -n 4 -s 43 20000000",
                        "nthreads": 4,
                        "realtime": 0.851063,
                        "ru_nivcsw": 2,
                        "ru_nvcsw": 58,
                        "ru_stime": 0.01611,
                        "ru_utime": 2.630304,
                        "stdout": "Using 4 threads, parallel/serials threshold=1000 insertion sort threshold=16\nmergesort parallel result ok. Timings follow\nuser time: 2.630304s\nsystem time: 0.016110s\nreal time: 0.851063s\n"
                    }
                ]
            },
            {
                "command": "timeout 15 ./mergesort -n 8 -s 43 20000000",
                "cputime": 2.799102,
                "nthreads": 8,
                "passed": 1,
                "realtime": 0.643537,
                "ru_stime": 0.020126,
                "ru_utime": 2.778976,
                "run_count": 1,
                "runs": [
                    {
                        "command": "timeout 15 ./mergesort -n 8 -s 43 20000000",
                        "nthreads": 8,
                        "realtime": 0.643537,
                        "ru_nivcsw": 4,
                        "ru_nvcsw": 198,
                        "ru_stime": 0.020126,
                        "ru_utime": 2.778976,
                        "stdout": "Using 8 threads, parallel/serials threshold=1000 insertion sort threshold=16\nmergesort parallel result ok. Timings follow\nuser time: 2.778976s\nsystem time: 0.020126s\nreal time: 0.643537s\n"
                    }
                ]
            },
            {
                "command": "timeout 15 ./mergesort -n 16 -s 43 20000000",
                "cputime": 3.10521,
                "nthreads": 16,
                "passed": 1,
                "realtime": 0.474596,
                "ru_stime": 0.028034,
                "ru_utime": 3.077176,
                "run_count": 1,
                "runs": [
                    {
                        "command": "timeout 15 ./mergesort -n 16 -s 43 20000000",
                        "nthreads": 16,
                        "realtime": 0.474596,
                        "ru_nivcsw": 2,
                        "ru_nvcsw": 674,
                        "ru_stime": 0.028034,
                        "ru_utime": 3.077176,
                        "stdout": "Using 16 threads, parallel/serials threshold=1000 insertion sort threshold=16\nmergesort parallel result ok. Timings follow\nuser time: 3.077176s\nsystem time: 0.028034s\nreal time: 0.474596s\n"
                    }
                ]
            }
        ],
        "mergesort small": [
            {
                "command": "timeout 15 ./mergesort -n 1 -s 43 2000000",
                "cputime": 0.24996500000000002,
                "nthreads": 1,
                "passed": 1,
                "realtime": 0.131542,
                "ru_stime": 0.003089,
                "ru_utime": 0.246876,
                "run_count": 1,
                "runs": [
                    {
                        "command": "timeout 15 ./mergesort -n 1 -s 43 2000000",
                        "nthreads": 1,
                        "realtime": 0.131542,
                        "ru_nivcsw": 0,
                        "ru_nvcsw": 8,
                        "ru_stime": 0.003089,
                        "ru_utime": 0.246876,
                        "stdout": "Using 1 threads, parallel/serials threshold=1000 insertion sort threshold=16\nmergesort parallel result ok. Timings follow\nuser time: 0.246876s\nsystem time: 0.003089s\nreal time: 0.131542s\n"
                    }
                ]
            },
            {
                "command": "timeout 15 ./mergesort -n 2 -s 43 2000000",
                "cputime": 0.293242,
                "nthreads": 2,
                "passed": 1,
                "realtime": 0.159704,
                "ru_stime": 0.00198,
                "ru_utime": 0.291262,
                "run_count": 1,
                "runs": [
                    {
                        "command": "timeout 15 ./mergesort -n 2 -s 43 2000000",
                        "nthreads": 2,
                        "realtime": 0.159704,
                        "ru_nivcsw": 0,
                        "ru_nvcsw": 19,
                        "ru_stime": 0.00198,
                        "ru_utime": 0.291262,
                        "stdout": "Using 2 threads, parallel/serials threshold=1000 insertion sort threshold=16\nmergesort parallel result ok. Timings follow\nuser time: 0.291262s\nsystem time: 0.001980s\nreal time: 0.159704s\n"
                    }
                ]
            },
            {
                "command": "timeout 15 ./mergesort -n 4 -s 43 2000000",
                "cputime": 0.259258,
                "nthreads": 4,
                "passed": 1,
                "realtime": 0.083496,
                "ru_stime": 0.002974,
                "ru_utime": 0.256284,
                "run_count": 1,
                "runs": [
                    {
                        "command": "timeout 15 ./mergesort -n 4 -s 43 2000000",
                        "nthreads": 4,
                        "realtime": 0.083496,
                        "ru_nivcsw": 2,
                        "ru_nvcsw": 44,
                        "ru_stime": 0.002974,
                        "ru_utime": 0.256284,
                        "stdout": "Using 4 threads, parallel/serials threshold=1000 insertion sort threshold=16\nmergesort parallel result ok. Timings follow\nuser time: 0.256284s\nsystem time: 0.002974s\nreal time: 0.083496s\n"
                    }
                ]
            },
            {
                "command": "timeout 15 ./mergesort -n 8 -s 43 2000000",
                "cputime": 0.257302,
                "nthreads": 8,
                "passed": 1,
                "realtime": 0.055671,
                "ru_stime": 0.003001,
                "ru_utime": 0.254301,
                "run_count": 1,
                "runs": [
                    {
                        "command": "timeout 15 ./mergesort -n 8 -s 43 2000000",
                        "nthreads": 8,
                        "realtime": 0.055671,
                        "ru_nivcsw": 2,
                        "ru_nvcsw": 103,
                        "ru_stime": 0.003001,
                        "ru_utime": 0.254301,
                        "stdout": "Using 8 threads, parallel/serials threshold=1000 insertion sort threshold=16\nmergesort parallel result ok. Timings follow\nuser time: 0.254301s\nsystem time: 0.003001s\nreal time: 0.055671s\n"
                    }
                ]
            },
            {
                "command": "timeout 15 ./mergesort -n 16 -s 43 2000000",
                "cputime": 0.264609,
                "nthreads": 16,
                "passed": 1,
                "realtime": 0.042376,
                "ru_stime": 0.006992,
                "ru_utime": 0.257617,
                "run_count": 1,
                "runs": [
                    {
                        "command": "timeout 15 ./mergesort -n 16 -s 43 2000000",
                        "nthreads": 16,
                        "realtime": 0.042376,
                        "ru_nivcsw": 0,
                        "ru_nvcsw": 349,
                        "ru_stime": 0.006992,
                        "ru_utime": 0.257617,
                        "stdout": "Using 16 threads, parallel/serials threshold=1000 insertion sort threshold=16\nmergesort parallel result ok. Timings follow\nuser time: 0.257617s\nsystem time: 0.006992s\nreal time: 0.042376s\n"
                    }
                ]
            }
        ]
    },
    "nqueens": {
        "nqueens 11": [
            {
                "command": "timeout 15 ./nqueens -n 1 11",
                "cputime": 0.661099,
                "nthreads": 1,
                "passed": 1,
                "realtime": 0.605132,
                "ru_stime": 0.0,
                "ru_utime": 0.661099,
                "run_count": 1,
                "runs": [
                    {
                        "command": "timeout 15 ./nqueens -n 1 11",
                        "nthreads": 1,
                        "realtime": 0.605132,
                        "ru_nivcsw": 2,
                        "ru_nvcsw": 37,
                        "ru_stime": 0.0,
                        "ru_utime": 0.661099,
                        "stdout": "Solving N = 11\nSolutions: 2680\nSolution ok.\n"
                    }
                ]
            },
            {
                "command": "timeout 15 ./nqueens -n 2 11",
                "cputime": 0.6926530000000001,
                "nthreads": 2,
                "passed": 1,
                "realtime": 0.318732,
                "ru_stime": 0.006187,
                "ru_utime": 0.686466,
                "run_count": 1,
                "runs": [
                    {
                        "command": "timeout 15 ./nqueens -n 2 11",
                        "nthreads": 2,
                        "realtime": 0.318732,
                        "ru_nivcsw": 0,
                        "ru_nvcsw": 124,
                        "ru_stime": 0.006187,
                        "ru_utime": 0.686466,
                        "stdout": "Solving N = 11\nSolutions: 2680\nSolution ok.\n"
                    }
                ]
            },
            {
                "command": "timeout 15 ./nqueens -n 4 11",
                "cputime": 0.734253,
                "nthreads": 4,
                "passed": 1,
                "realtime": 0.190201,
                "ru_stime": 0.018394,
                "ru_utime": 0.715859,
                "run_count": 1,
                "runs": [
                    {
                        "command": "timeout 15 ./nqueens -n 4 11",
                        "nthreads": 4,
                        "realtime": 0.190201,
                        "ru_nivcsw": 4,
                        "ru_nvcsw": 1183,
                        "ru_stime": 0.018394,
                        "ru_utime": 0.715859,
                        "stdout": "Solving N = 11\nSolutions: 2680\nSolution ok.\n"
                    }
                ]
            },
            {
                "command": "timeout 15 ./nqueens -n 8 11",
                "cputime": 0.8479129999999999,
                "nthreads": 8,
                "passed": 1,
                "realtime": 0.102417,
                "ru_stime": 0.097686,
                "ru_utime": 0.750227,
                "run_count": 1,
                "runs": [
                    {
                        "command": "timeout 15 ./nqueens -n 8 11",
                        "nthreads": 8,
                        "realtime": 0.102417,
                        "ru_nivcsw": 0,
                        "ru_nvcsw": 11450,
                        "ru_stime": 0.097686,
                        "ru_utime": 0.750227,
                        "stdout": "Solving N = 11\nSolutions: 2680\nSolution ok.\n"
                    }
                ]
            },
            {
                "command": "timeout 15 ./nqueens -n 16 11",
                "cputime": 1.599891,
                "nthreads": 16,
                "passed": 1,
                "realtime": 0.114222,
                "ru_stime": 0.54253,
                "ru_utime": 1.057361,
                "run_count": 1,
                "runs": [
                    {
                        "command": "timeout 15 ./nqueens -n 16 11",
                        "nthreads": 16,
                        "realtime": 0.114222,
                        "ru_nivcsw": 12,
                        "ru_nvcsw": 35653,
                        "ru_stime": 0.54253,
                        "ru_utime": 1.057361,
                        "stdout": "Solving N = 11\nSolutions: 2680\nSolution ok.\n"
                    }
                ]
            }
        ],
        "nqueens 12": [
            {
                "command": "timeout 60 ./nqueens -n 1 12",
                "cputime": 4.255164,
                "nthreads": 1,
                "passed": 1,
                "realtime": 3.932624,
                "ru_stime": 0.0,
                "ru_utime": 4.255164,
                "run_count": 1,
                "runs": [
                    {
                        "command": "timeout 60 ./nqueens -n 1 12",
                        "nthreads": 1,
                        "realtime": 3.932624,
                        "ru_nivcsw": 3,
                        "ru_nvcsw": 22,
                        "ru_stime": 0.0,
                        "ru_utime": 4.255164,
                        "stdout": "Solving N = 12\nSolutions: 14200\nSolution ok.\n"
                    }
                ]
            },
            {
                "command": "timeout 60 ./nqueens -n 2 12",
                "cputime": 4.290922,
                "nthreads": 2,
                "passed": 1,
                "realtime": 2.114829,
                "ru_stime": 0.005164,
                "ru_utime": 4.285758,
                "run_count": 1,
                "runs": [
                    {
                        "command": "timeout 60 ./nqueens -n 2 12",
                        "nthreads": 2,
                        "realtime": 2.114829,
                        "ru_nivcsw": 4,
                        "ru_nvcsw": 76,
                        "ru_stime": 0.005164,
                        "ru_utime": 4.285758,
                        "stdout": "Solving N = 12\nSolutions: 14200\nSolution ok.\n"
                    }
                ]
            },
            {
                "command": "timeout 60 ./nqueens -n 4 12",
                "cputime": 4.516948,
                "nthreads": 4,
                "passed": 1,
                "realtime": 1.131607,
                "ru_stime": 0.008972,
                "ru_utime": 4.507976,
                "run_count": 1,
                "runs": [
                    {
                        "command": "timeout 60 ./nqueens -n 4 12",
                        "nthreads": 4,
                        "realtime": 1.131607,
                        "ru_nivcsw": 8,
                        "ru_nvcsw": 417,
                        "ru_stime": 0.008972,
                        "ru_utime": 4.507976,
                        "stdout": "Solving N = 12\nSolutions: 14200\nSolution ok.\n"
                    }
                ]
            },
            {
                "command": "timeout 60 ./nqueens -n 8 12",
                "cputime": 4.658949000000001,
                "nthreads": 8,
                "passed": 1,
                "realtime": 0.56921,
                "ru_stime": 0.038115,
                "ru_utime": 4.620834,
                "run_count": 1,
                "runs": [
                    {
                        "command": "timeout 60 ./nqueens -n 8 12",
                        "nthreads": 8,
                        "realtime": 0.56921,
                        "ru_nivcsw": 8,
                        "ru_nvcsw": 2137,
                        "ru_stime": 0.038115,
                        "ru_utime": 4.620834,
                        "stdout": "Solving N = 12\nSolutions: 14200\nSolution ok.\n"
                    }
                ]
            },
            {
                "command": "timeout 60 ./nqueens -n 16 12",
                "cputime": 6.375711,
                "nthreads": 16,
                "passed": 1,
                "realtime": 0.445243,
                "ru_stime": 0.102573,
                "ru_utime": 6.273138,
                "run_count": 1,
                "runs": [
                    {
                        "command": "timeout 60 ./nqueens -n 16 12",
                        "nthreads": 16,
                        "realtime": 0.445243,
                        "ru_nivcsw": 18,
                        "ru_nvcsw": 10614,
                        "ru_stime": 0.102573,
                        "ru_utime": 6.273138,
                        "stdout": "Solving N = 12\nSolutions: 14200\nSolution ok.\n"
                    }
                ]
            }
        ],
        "nqueens 13": [
            {
                "command": "timeout 60 ./nqueens -n 5 13",
                "cputime": 30.317431,
                "nthreads": 5,
                "passed": 1,
                "realtime": 9.407199,
                "ru_stime": 0.007474,
                "ru_utime": 30.309957,
                "run_count": 1,
                "runs": [
                    {
                        "command": "timeout 60 ./nqueens -n 5 13",
                        "nthreads": 5,
                        "realtime": 9.407199,
                        "ru_nivcsw": 30,
                        "ru_nvcsw": 768,
                        "ru_stime": 0.007474,
                        "ru_utime": 30.309957,
                        "stdout": "Solving N = 13\nSolutions: 73712\nSolution ok.\n"
                    }
                ]
            },
            {
                "command": "timeout 60 ./nqueens -n 10 13",
                "cputime": 31.729827,
                "nthreads": 10,
                "passed": 1,
                "realtime": 3.085726,
                "ru_stime": 0.024983,
                "ru_utime": 31.704844,
                "run_count": 1,
                "runs": [
                    {
                        "command": "timeout 60 ./nqueens -n 10 13",
                        "nthreads": 10,
                        "realtime": 3.085726,
                        "ru_nivcsw": 54,
                        "ru_nvcsw": 1350,
                        "ru_stime": 0.024983,
                        "ru_utime": 31.704844,
                        "stdout": "Solving N = 13\nSolutions: 73712\nSolution ok.\n"
                    }
                ]
            },
            {
                "command": "timeout 60 ./nqueens -n 20 13",
                "cputime": 39.589715,
                "nthreads": 20,
                "passed": 1,
                "realtime": 2.18794,
                "ru_stime": 0.085221,
                "ru_utime": 39.504494,
                "run_count": 1,
                "runs": [
                    {
                        "command": "timeout 60 ./nqueens -n 20 13",
                        "nthreads": 20,
                        "realtime": 2.18794,
                        "ru_nivcsw": 135,
                        "ru_nvcsw": 7840,
                        "ru_stime": 0.085221,
                        "ru_utime": 39.504494,
                        "stdout": "Solving N = 13\nSolutions: 73712\nSolution ok.\n"
                    }
                ]
            }
        ]
    },
    "psum": {
        "psum_test large": [
            {
                "command": "timeout 60 ./psum_test -n 4 1000000000",
                "cputime": 46.059209,
                "nthreads": 4,
                "passed": 1,
                "realtime": 11.903399,
                "ru_stime": 33.337513,
                "ru_utime": 12.721696,
                "run_count": 1,
                "runs": [
                    {
                        "command": "timeout 60 ./psum_test -n 4 1000000000",
                        "nthreads": 4,
                        "realtime": 11.903399,
                        "ru_nivcsw": 26,
                        "ru_nvcsw": 4867338,
                        "ru_stime": 33.337513,
                        "ru_utime": 12.721696,
                        "stdout": "starting...\nresult ok.\n"
                    }
                ]
            },
            {
                "command": "timeout 60 ./psum_test -n 8 1000000000",
                "cputime": 88.07924899999999,
                "nthreads": 8,
                "passed": 1,
                "realtime": 13.690044,
                "ru_stime": 77.231079,
                "ru_utime": 10.84817,
                "run_count": 1,
                "runs": [
                    {
                        "command": "timeout 60 ./psum_test -n 8 1000000000",
                        "nthreads": 8,
                        "realtime": 13.690044,
                        "ru_nivcsw": 61,
                        "ru_nvcsw": 3077977,
                        "ru_stime": 77.231079,
                        "ru_utime": 10.84817,
                        "stdout": "starting...\nresult ok.\n"
                    }
                ]
            },
            {
                "command": "timeout 60 ./psum_test -n 16 1000000000",
                "cputime": 136.324094,
                "nthreads": 16,
                "passed": 1,
                "realtime": 11.63379,
                "ru_stime": 127.616328,
                "ru_utime": 8.707766,
                "run_count": 1,
                "runs": [
                    {
                        "command": "timeout 60 ./psum_test -n 16 1000000000",
                        "nthreads": 16,
                        "realtime": 11.63379,
                        "ru_nivcsw": 117,
                        "ru_nvcsw": 1302115,
                        "ru_stime": 127.616328,
                        "ru_utime": 8.707766,
                        "stdout": "starting...\nresult ok.\n"
                    }
                ]
            }
        ],
        "psum_test medium": [
            {
                "command": "timeout 15 ./psum_test -n 1 100000000",
                "cputime": 1.112433,
                "nthreads": 1,
                "passed": 1,
                "realtime": 0.560613,
                "ru_stime": 0.514245,
                "ru_utime": 0.598188,
                "run_count": 1,
                "runs": [
                    {
                        "command": "timeout 15 ./psum_test -n 1 100000000",
                        "nthreads": 1,
                        "realtime": 0.560613,
                        "ru_nivcsw": 0,
                        "ru_nvcsw": 12615,
                        "ru_stime": 0.514245,
                        "ru_utime": 0.598188,
                        "stdout": "starting...\nresult ok.\n"
                    }
                ]
            },
            {
                "command": "timeout 15 ./psum_test -n 2 100000000",
                "cputime": 1.648222,
                "nthreads": 2,
                "passed": 1,
                "realtime": 0.6213,
                "ru_stime": 0.963215,
                "ru_utime": 0.685007,
                "run_count": 1,
                "runs": [
                    {
                        "command": "timeout 15 ./psum_test -n 2 100000000",
                        "nthreads": 2,
                        "realtime": 0.6213,
                        "ru_nivcsw": 0,
                        "ru_nvcsw": 111607,
                        "ru_stime": 0.963215,
                        "ru_utime": 0.685007,
                        "stdout": "starting...\nresult ok.\n"
                    }
                ]
            },
            {
                "command": "timeout 15 ./psum_test -n 4 100000000",
                "cputime": 2.9651389999999997,
                "nthreads": 4,
                "passed": 1,
                "realtime": 0.770137,
                "ru_stime": 2.159121,
                "ru_utime": 0.806018,
                "run_count": 1,
                "runs": [
                    {
                        "command": "timeout 15 ./psum_test -n 4 100000000",
                        "nthreads": 4,
                        "realtime": 0.770137,
                        "ru_nivcsw": 4,
                        "ru_nvcsw": 316072,
                        "ru_stime": 2.159121,
                        "ru_utime": 0.806018,
                        "stdout": "starting...\nresult ok.\n"
                    }
                ]
            },
            {
                "command": "timeout 15 ./psum_test -n 8 100000000",
                "cputime": 6.129262,
                "nthreads": 8,
                "passed": 1,
                "realtime": 0.953708,
                "ru_stime": 5.284898,
                "ru_utime": 0.844364,
                "run_count": 1,
                "runs": [
                    {
                        "command": "timeout 15 ./psum_test -n 8 100000000",
                        "nthreads": 8,
                        "realtime": 0.953708,
                        "ru_nivcsw": 12,
                        "ru_nvcsw": 480703,
                        "ru_stime": 5.284898,
                        "ru_utime": 0.844364,
                        "stdout": "starting...\nresult ok.\n"
                    }
                ]
            },
            {
                "command": "timeout 15 ./psum_test -n 16 100000000",
                "cputime": 9.188983,
                "nthreads": 16,
                "passed": 1,
                "realtime": 0.815557,
                "ru_stime": 8.516246,
                "ru_utime": 0.672737,
                "run_count": 1,
                "runs": [
                    {
                        "command": "timeout 15 ./psum_test -n 16 100000000",
                        "nthreads": 16,
                        "realtime": 0.815557,
                        "ru_nivcsw": 11,
                        "ru_nvcsw": 163834,
                        "ru_stime": 8.516246,
                        "ru_utime": 0.672737,
                        "stdout": "starting...\nresult ok.\n"
                    }
                ]
            }
        ],
        "psum_test small": [
            {
                "command": "timeout 15 ./psum_test -n 1 10000000",
                "cputime": 0.151502,
                "nthreads": 1,
                "passed": 1,
                "realtime": 0.076143,
                "ru_stime": 0.058826,
                "ru_utime": 0.092676,
                "run_count": 1,
                "runs": [
                    {
                        "command": "timeout 15 ./psum_test -n 1 10000000",
                        "nthreads": 1,
                        "realtime": 0.076143,
                        "ru_nivcsw": 0,
                        "ru_nvcsw": 184,
                        "ru_stime": 0.058826,
                        "ru_utime": 0.092676,
                        "stdout": "starting...\nresult ok.\n"
                    }
                ]
            },
            {
                "command": "timeout 15 ./psum_test -n 2 10000000",
                "cputime": 0.16891,
                "nthreads": 2,
                "passed": 1,
                "realtime": 0.063613,
                "ru_stime": 0.106783,
                "ru_utime": 0.062127,
                "run_count": 1,
                "runs": [
                    {
                        "command": "timeout 15 ./psum_test -n 2 10000000",
                        "nthreads": 2,
                        "realtime": 0.063613,
                        "ru_nivcsw": 0,
                        "ru_nvcsw": 12686,
                        "ru_stime": 0.106783,
                        "ru_utime": 0.062127,
                        "stdout": "starting...\nresult ok.\n"
                    }
                ]
            },
            {
                "command": "timeout 15 ./psum_test -n 4 10000000",
                "cputime": 0.353889,
                "nthreads": 4,
                "passed": 1,
                "realtime": 0.091469,
                "ru_stime": 0.256272,
                "ru_utime": 0.097617,
                "run_count": 1,
                "runs": [
                    {
                        "command": "timeout 15 ./psum_test -n 4 10000000",
                        "nthreads": 4,
                        "realtime": 0.091469,
                        "ru_nivcsw": 1,
                        "ru_nvcsw": 36814,
                        "ru_stime": 0.256272,
                        "ru_utime": 0.097617,
                        "stdout": "starting...\nresult ok.\n"
                    }
                ]
            },
            {
                "command": "timeout 15 ./psum_test -n 8 10000000",
                "cputime": 0.777506,
                "nthreads": 8,
                "passed": 1,
                "realtime": 0.121014,
                "ru_stime": 0.645308,
                "ru_utime": 0.132198,
                "run_count": 1,
                "runs": [
                    {
                        "command": "timeout 15 ./psum_test -n 8 10000000",
                        "nthreads": 8,
                        "realtime": 0.121014,
                        "ru_nivcsw": 0,
                        "ru_nvcsw": 60874,
                        "ru_stime": 0.645308,
                        "ru_utime": 0.132198,
                        "stdout": "starting...\nresult ok.\n"
                    }
                ]
            },
            {
                "command": "timeout 15 ./psum_test -n 16 10000000",
                "cputime": 1.502125,
                "nthreads": 16,
                "passed": 1,
                "realtime": 0.126291,
                "ru_stime": 1.377804,
                "ru_utime": 0.124321,
                "run_count": 1,
                "runs": [
                    {
                        "command": "timeout 15 ./psum_test -n 16 10000000",
                        "nthreads": 16,
                        "realtime": 0.126291,
                        "ru_nivcsw": 3,
                        "ru_nvcsw": 52918,
                        "ru_stime": 1.377804,
                        "ru_utime": 0.124321,
                        "stdout": "starting...\nresult ok.\n"
                    }
                ]
            }
        ]
    },
    "quicksort": {
        "quicksort large": [
            {
                "command": "timeout 60 ./quicksort -n 5 -s 43 -d 16 200000000",
                "cputime": 24.972011,
                "nthreads": 5,
                "passed": 1,
                "realtime": 7.455354,
                "ru_stime": 0.027023,
                "ru_utime": 24.944988,
                "run_count": 1,
                "runs": [
                    {
                        "command": "timeout 60 ./quicksort -n 5 -s 43 -d 16 200000000",
                        "nthreads": 5,
                        "realtime": 7.455354,
                        "ru_nivcsw": 20,
                        "ru_nvcsw": 48,
                        "ru_stime": 0.027023,
                        "ru_utime": 24.944988,
                        "stdout": "Using 5 threads, recursive parallel depth=16\nqsort parallel result ok. Timings follow\nuser time: 24.944988s\nsystem time: 0.027023s\nreal time: 7.455354s\n"
                    }
                ]
            },
            {
                "command": "timeout 60 ./quicksort -n 10 -s 43 -d 16 200000000",
                "cputime": 26.151238,
                "nthreads": 10,
                "passed": 1,
                "realtime": 5.885377,
                "ru_stime": 0.016045,
                "ru_utime": 26.135193,
                "run_count": 1,
                "runs": [
                    {
                        "command": "timeout 60 ./quicksort -n 10 -s 43 -d 16 200000000",
                        "nthreads": 10,
                        "realtime": 5.885377,
                        "ru_nivcsw": 24,
                        "ru_nvcsw": 287,
                        "ru_stime": 0.016045,
                        "ru_utime": 26.135193,
                        "stdout": "Using 10 threads, recursive parallel depth=16\nqsort parallel result ok. Timings follow\nuser time: 26.135193s\nsystem time: 0.016045s\nreal time: 5.885377s\n"
                    }
                ]
            },
            {
                "command": "timeout 60 ./quicksort -n 20 -s 43 -d 16 200000000",
                "cputime": 28.008893999999998,
                "nthreads": 20,
                "passed": 1,
                "realtime": 3.943212,
                "ru_stime": 0.014393,
                "ru_utime": 27.994501,
                "run_count": 1,
                "runs": [
                    {
                        "command": "timeout 60 ./quicksort -n 20 -s 43 -d 16 200000000",
                        "nthreads": 20,
                        "realtime": 3.943212,
                        "ru_nivcsw": 64,
                        "ru_nvcsw": 2725,
                        "ru_stime": 0.014393,
                        "ru_utime": 27.994501,
                        "stdout": "Using 20 threads, recursive parallel depth=16\nqsort parallel result ok. Timings follow\nuser time: 27.994501s\nsystem time: 0.014393s\nreal time: 3.943212s\n"
                    }
                ]
            }
        ],
        "quicksort medium": [
            {
                "command": "timeout 15 ./quicksort -n 1 -s 43 -d 16 20000000",
                "cputime": 2.143412,
                "nthreads": 1,
                "passed": 1,
                "realtime": 1.871248,
                "ru_stime": 0.000926,
                "ru_utime": 2.142486,
                "run_count": 1,
                "runs": [
                    {
                        "command": "timeout 15 ./quicksort -n 1 -s 43 -d 16 20000000",
                        "nthreads": 1,
                        "realtime": 1.871248,
                        "ru_nivcsw": 3,
                        "ru_nvcsw": 6,
                        "ru_stime": 0.000926,
                        "ru_utime": 2.142486,
                        "stdout": "Using 1 threads, recursive parallel depth=16\nqsort parallel result ok. Timings follow\nuser time: 2.142486s\nsystem time: 0.000926s\nreal time: 1.871248s\n"
                    }
                ]
            },
            {
                "command": "timeout 15 ./quicksort -n 2 -s 43 -d 16 20000000",
                "cputime": 2.21338,
                "nthreads": 2,
                "passed": 1,
                "realtime": 1.302572,
                "ru_stime": 0.002954,
                "ru_utime": 2.210426,
                "run_count": 1,
                "runs": [
                    {
                        "command": "timeout 15 ./quicksort -n 2 -s 43 -d 16 20000000",
                        "nthreads": 2,
                        "realtime": 1.302572,
                        "ru_nivcsw": 3,
                        "ru_nvcsw": 13,
                        "ru_stime": 0.002954,
                        "ru_utime": 2.210426,
                        "stdout": "Using 2 threads, recursive parallel depth=16\nqsort parallel result ok. Timings follow\nuser time: 2.210426s\nsystem time: 0.002954s\nreal time: 1.302572s\n"
                    }
                ]
            },
            {
                "command": "timeout 15 ./quicksort -n 4 -s 43 -d 16 20000000",
                "cputime": 2.288286,
                "nthreads": 4,
                "passed": 1,
                "realtime": 0.856659,
                "ru_stime": 0.0,
                "ru_utime": 2.288286,
                "run_count": 1,
                "runs": [
                    {
                        "command": "timeout 15 ./quicksort -n 4 -s 43 -d 16 20000000",
                        "nthreads": 4,
                        "realtime": 0.856659,
                        "ru_nivcsw": 2,
                        "ru_nvcsw": 72,
                        "ru_stime": 0.0,
                        "ru_utime": 2.288286,
                        "stdout": "Using 4 threads, recursive parallel depth=16\nqsort parallel result ok. Timings follow\nuser time: 2.288286s\nsystem time: 0.000000s\nreal time: 0.856659s\n"
                    }
                ]
            },
            {
                "command": "timeout 15 ./quicksort -n 8 -s 43 -d 16 20000000",
                "cputime": 2.4914989999999997,
                "nthreads": 8,
                "passed": 1,
                "realtime": 0.546075,
                "ru_stime": 0.002178,
                "ru_utime": 2.489321,
                "run_count": 1,
                "runs": [
                    {
                        "command": "timeout 15 ./quicksort -n 8 -s 43 -d 16 20000000",
                        "nthreads": 8,
                        "realtime": 0.546075,
                        "ru_nivcsw": 2,
                        "ru_nvcsw": 723,
                        "ru_stime": 0.002178,
                        "ru_utime": 2.489321,
                        "stdout": "Using 8 threads, recursive parallel depth=16\nqsort parallel result ok. Timings follow\nuser time: 2.489321s\nsystem time: 0.002178s\nreal time: 0.546075s\n"
                    }
                ]
            },
            {
                "command": "timeout 15 ./quicksort -n 16 -s 43 -d 16 20000000",
                "cputime": 2.7453019999999997,
                "nthreads": 16,
                "passed": 1,
                "realtime": 0.393242,
                "ru_stime": 0.076631,
                "ru_utime": 2.668671,
                "run_count": 1,
                "runs": [
                    {
                        "command": "timeout 15 ./quicksort -n 16 -s 43 -d 16 20000000",
                        "nthreads": 16,
                        "realtime": 0.393242,
                        "ru_nivcsw": 7,
                        "ru_nvcsw": 5653,
                        "ru_stime": 0.076631,
                        "ru_utime": 2.668671,
                        "stdout": "Using 16 threads, recursive parallel depth=16\nqsort parallel result ok. Timings follow\nuser time: 2.668671s\nsystem time: 0.076631s\nreal time: 0.393242s\n"
                    }
                ]
            }
        ],
        "quicksort small": [
            {
                "command": "timeout 15 ./quicksort -n 1 -s 43 -d 16 2000000",
                "cputime": 0.198235,
                "nthreads": 1,
                "passed": 1,
                "realtime": 0.102587,
                "ru_stime": 0.000144,
                "ru_utime": 0.198091,
                "run_count": 1,
                "runs": [
                    {
                        "command": "timeout 15 ./quicksort -n 1 -s 43 -d 16 2000000",
                        "nthreads": 1,
                        "realtime": 0.102587,
                        "ru_nivcsw": 2,
                        "ru_nvcsw": 12,
                        "ru_stime": 0.000144,
                        "ru_utime": 0.198091,
                        "stdout": "Using 1 threads, recursive parallel depth=16\nqsort parallel result ok. Timings follow\nuser time: 0.198091s\nsystem time: 0.000144s\nreal time: 0.102587s\n"
                    }
                ]
            },
            {
                "command": "timeout 15 ./quicksort -n 2 -s 43 -d 16 2000000",
                "cputime": 0.202038,
                "nthreads": 2,
                "passed": 1,
                "realtime": 0.084905,
                "ru_stime": 0.000999,
                "ru_utime": 0.201039,
                "run_count": 1,
                "runs": [
                    {
                        "command": "timeout 15 ./quicksort -n 2 -s 43 -d 16 2000000",
                        "nthreads": 2,
                        "realtime": 0.084905,
                        "ru_nivcsw": 0,
                        "ru_nvcsw": 87,
                        "ru_stime": 0.000999,
                        "ru_utime": 0.201039,
                        "stdout": "Using 2 threads, recursive parallel depth=16\nqsort parallel result ok. Timings follow\nuser time: 0.201039s\nsystem time: 0.000999s\nreal time: 0.084905s\n"
                    }
                ]
            },
            {
                "command": "timeout 15 ./quicksort -n 4 -s 43 -d 16 2000000",
                "cputime": 0.242801,
                "nthreads": 4,
                "passed": 1,
                "realtime": 0.074401,
                "ru_stime": 0.011209,
                "ru_utime": 0.231592,
                "run_count": 1,
                "runs": [
                    {
                        "command": "timeout 15 ./quicksort -n 4 -s 43 -d 16 2000000",
                        "nthreads": 4,
                        "realtime": 0.074401,
                        "ru_nivcsw": 0,
                        "ru_nvcsw": 886,
                        "ru_stime": 0.011209,
                        "ru_utime": 0.231592,
                        "stdout": "Using 4 threads, recursive parallel depth=16\nqsort parallel result ok. Timings follow\nuser time: 0.231592s\nsystem time: 0.011209s\nreal time: 0.074401s\n"
                    }
                ]
            },
            {
                "command": "timeout 15 ./quicksort -n 8 -s 43 -d 16 2000000",
                "cputime": 0.27669299999999997,
                "nthreads": 8,
                "passed": 1,
                "realtime": 0.049847,
                "ru_stime": 0.045995,
                "ru_utime": 0.230698,
                "run_count": 1,
                "runs": [
                    {
                        "command": "timeout 15 ./quicksort -n 8 -s 43 -d 16 2000000",
                        "nthreads": 8,
                        "realtime": 0.049847,
                        "ru_nivcsw": 0,
                        "ru_nvcsw": 4559,
                        "ru_stime": 0.045995,
                        "ru_utime": 0.230698,
                        "stdout": "Using 8 threads, recursive parallel depth=16\nqsort parallel result ok. Timings follow\nuser time: 0.230698s\nsystem time: 0.045995s\nreal time: 0.049847s\n"
                    }
                ]
            },
            {
                "command": "timeout 15 ./quicksort -n 16 -s 43 -d 16 2000000",
                "cputime": 0.46064499999999997,
                "nthreads": 16,
                "passed": 1,
                "realtime": 0.050303,
                "ru_stime": 0.207435,
                "ru_utime": 0.25321,
                "run_count": 1,
                "runs": [
                    {
                        "command": "timeout 15 ./quicksort -n 16 -s 43 -d 16 2000000",
                        "nthreads": 16,
                        "realtime": 0.050303,
                        "ru_nivcsw": 1,
                        "ru_nvcsw": 11611,
                        "ru_stime": 0.207435,
                        "ru_utime": 0.25321,
                        "stdout": "Using 16 threads, recursive parallel depth=16\nqsort parallel result ok. Timings follow\nuser time: 0.253210s\nsystem time: 0.207435s\nreal time: 0.050303s\n"
                    }
                ]
            }
        ]
    }
}
